%TF.GenerationSoftware,KiCad,Pcbnew,7.0.1*%
%TF.CreationDate,2023-03-26T23:28:06+01:00*%
%TF.ProjectId,STM32,53544d33-322e-46b6-9963-61645f706362,rev?*%
%TF.SameCoordinates,Original*%
%TF.FileFunction,Legend,Bot*%
%TF.FilePolarity,Positive*%
%FSLAX46Y46*%
G04 Gerber Fmt 4.6, Leading zero omitted, Abs format (unit mm)*
G04 Created by KiCad (PCBNEW 7.0.1) date 2023-03-26 23:28:06*
%MOMM*%
%LPD*%
G01*
G04 APERTURE LIST*
%ADD10C,0.150000*%
%ADD11C,0.200000*%
%ADD12C,0.300000*%
%ADD13O,0.800000X0.800000*%
%ADD14O,1.800000X1.150000*%
%ADD15O,2.000000X1.450000*%
%ADD16C,0.900000*%
%ADD17R,1.700000X1.700000*%
%ADD18O,1.700000X1.700000*%
%ADD19C,2.200000*%
G04 APERTURE END LIST*
D10*
X202147619Y-95078285D02*
X202109523Y-95040190D01*
X202109523Y-95040190D02*
X202033333Y-95002095D01*
X202033333Y-95002095D02*
X201842857Y-95002095D01*
X201842857Y-95002095D02*
X201766666Y-95040190D01*
X201766666Y-95040190D02*
X201728571Y-95078285D01*
X201728571Y-95078285D02*
X201690476Y-95154476D01*
X201690476Y-95154476D02*
X201690476Y-95230666D01*
X201690476Y-95230666D02*
X201728571Y-95344952D01*
X201728571Y-95344952D02*
X202185714Y-95802095D01*
X202185714Y-95802095D02*
X201690476Y-95802095D01*
X201004761Y-95002095D02*
X201157142Y-95002095D01*
X201157142Y-95002095D02*
X201233333Y-95040190D01*
X201233333Y-95040190D02*
X201271428Y-95078285D01*
X201271428Y-95078285D02*
X201347618Y-95192571D01*
X201347618Y-95192571D02*
X201385714Y-95344952D01*
X201385714Y-95344952D02*
X201385714Y-95649714D01*
X201385714Y-95649714D02*
X201347618Y-95725904D01*
X201347618Y-95725904D02*
X201309523Y-95764000D01*
X201309523Y-95764000D02*
X201233333Y-95802095D01*
X201233333Y-95802095D02*
X201080952Y-95802095D01*
X201080952Y-95802095D02*
X201004761Y-95764000D01*
X201004761Y-95764000D02*
X200966666Y-95725904D01*
X200966666Y-95725904D02*
X200928571Y-95649714D01*
X200928571Y-95649714D02*
X200928571Y-95459238D01*
X200928571Y-95459238D02*
X200966666Y-95383047D01*
X200966666Y-95383047D02*
X201004761Y-95344952D01*
X201004761Y-95344952D02*
X201080952Y-95306857D01*
X201080952Y-95306857D02*
X201233333Y-95306857D01*
X201233333Y-95306857D02*
X201309523Y-95344952D01*
X201309523Y-95344952D02*
X201347618Y-95383047D01*
X201347618Y-95383047D02*
X201385714Y-95459238D01*
X200014285Y-94964000D02*
X200699999Y-95992571D01*
X199595237Y-95002095D02*
X199519047Y-95002095D01*
X199519047Y-95002095D02*
X199442856Y-95040190D01*
X199442856Y-95040190D02*
X199404761Y-95078285D01*
X199404761Y-95078285D02*
X199366666Y-95154476D01*
X199366666Y-95154476D02*
X199328571Y-95306857D01*
X199328571Y-95306857D02*
X199328571Y-95497333D01*
X199328571Y-95497333D02*
X199366666Y-95649714D01*
X199366666Y-95649714D02*
X199404761Y-95725904D01*
X199404761Y-95725904D02*
X199442856Y-95764000D01*
X199442856Y-95764000D02*
X199519047Y-95802095D01*
X199519047Y-95802095D02*
X199595237Y-95802095D01*
X199595237Y-95802095D02*
X199671428Y-95764000D01*
X199671428Y-95764000D02*
X199709523Y-95725904D01*
X199709523Y-95725904D02*
X199747618Y-95649714D01*
X199747618Y-95649714D02*
X199785714Y-95497333D01*
X199785714Y-95497333D02*
X199785714Y-95306857D01*
X199785714Y-95306857D02*
X199747618Y-95154476D01*
X199747618Y-95154476D02*
X199709523Y-95078285D01*
X199709523Y-95078285D02*
X199671428Y-95040190D01*
X199671428Y-95040190D02*
X199595237Y-95002095D01*
X199061904Y-95002095D02*
X198566666Y-95002095D01*
X198566666Y-95002095D02*
X198833332Y-95306857D01*
X198833332Y-95306857D02*
X198719047Y-95306857D01*
X198719047Y-95306857D02*
X198642856Y-95344952D01*
X198642856Y-95344952D02*
X198604761Y-95383047D01*
X198604761Y-95383047D02*
X198566666Y-95459238D01*
X198566666Y-95459238D02*
X198566666Y-95649714D01*
X198566666Y-95649714D02*
X198604761Y-95725904D01*
X198604761Y-95725904D02*
X198642856Y-95764000D01*
X198642856Y-95764000D02*
X198719047Y-95802095D01*
X198719047Y-95802095D02*
X198947618Y-95802095D01*
X198947618Y-95802095D02*
X199023809Y-95764000D01*
X199023809Y-95764000D02*
X199061904Y-95725904D01*
X197652380Y-94964000D02*
X198338094Y-95992571D01*
X197423809Y-95078285D02*
X197385713Y-95040190D01*
X197385713Y-95040190D02*
X197309523Y-95002095D01*
X197309523Y-95002095D02*
X197119047Y-95002095D01*
X197119047Y-95002095D02*
X197042856Y-95040190D01*
X197042856Y-95040190D02*
X197004761Y-95078285D01*
X197004761Y-95078285D02*
X196966666Y-95154476D01*
X196966666Y-95154476D02*
X196966666Y-95230666D01*
X196966666Y-95230666D02*
X197004761Y-95344952D01*
X197004761Y-95344952D02*
X197461904Y-95802095D01*
X197461904Y-95802095D02*
X196966666Y-95802095D01*
X196471427Y-95002095D02*
X196395237Y-95002095D01*
X196395237Y-95002095D02*
X196319046Y-95040190D01*
X196319046Y-95040190D02*
X196280951Y-95078285D01*
X196280951Y-95078285D02*
X196242856Y-95154476D01*
X196242856Y-95154476D02*
X196204761Y-95306857D01*
X196204761Y-95306857D02*
X196204761Y-95497333D01*
X196204761Y-95497333D02*
X196242856Y-95649714D01*
X196242856Y-95649714D02*
X196280951Y-95725904D01*
X196280951Y-95725904D02*
X196319046Y-95764000D01*
X196319046Y-95764000D02*
X196395237Y-95802095D01*
X196395237Y-95802095D02*
X196471427Y-95802095D01*
X196471427Y-95802095D02*
X196547618Y-95764000D01*
X196547618Y-95764000D02*
X196585713Y-95725904D01*
X196585713Y-95725904D02*
X196623808Y-95649714D01*
X196623808Y-95649714D02*
X196661904Y-95497333D01*
X196661904Y-95497333D02*
X196661904Y-95306857D01*
X196661904Y-95306857D02*
X196623808Y-95154476D01*
X196623808Y-95154476D02*
X196585713Y-95078285D01*
X196585713Y-95078285D02*
X196547618Y-95040190D01*
X196547618Y-95040190D02*
X196471427Y-95002095D01*
X195899999Y-95078285D02*
X195861903Y-95040190D01*
X195861903Y-95040190D02*
X195785713Y-95002095D01*
X195785713Y-95002095D02*
X195595237Y-95002095D01*
X195595237Y-95002095D02*
X195519046Y-95040190D01*
X195519046Y-95040190D02*
X195480951Y-95078285D01*
X195480951Y-95078285D02*
X195442856Y-95154476D01*
X195442856Y-95154476D02*
X195442856Y-95230666D01*
X195442856Y-95230666D02*
X195480951Y-95344952D01*
X195480951Y-95344952D02*
X195938094Y-95802095D01*
X195938094Y-95802095D02*
X195442856Y-95802095D01*
X195176189Y-95002095D02*
X194680951Y-95002095D01*
X194680951Y-95002095D02*
X194947617Y-95306857D01*
X194947617Y-95306857D02*
X194833332Y-95306857D01*
X194833332Y-95306857D02*
X194757141Y-95344952D01*
X194757141Y-95344952D02*
X194719046Y-95383047D01*
X194719046Y-95383047D02*
X194680951Y-95459238D01*
X194680951Y-95459238D02*
X194680951Y-95649714D01*
X194680951Y-95649714D02*
X194719046Y-95725904D01*
X194719046Y-95725904D02*
X194757141Y-95764000D01*
X194757141Y-95764000D02*
X194833332Y-95802095D01*
X194833332Y-95802095D02*
X195061903Y-95802095D01*
X195061903Y-95802095D02*
X195138094Y-95764000D01*
X195138094Y-95764000D02*
X195176189Y-95725904D01*
X193728569Y-95497333D02*
X193119046Y-95497333D01*
X192242855Y-95002095D02*
X191976188Y-95802095D01*
X191976188Y-95802095D02*
X191709522Y-95002095D01*
X191290474Y-95002095D02*
X191214284Y-95002095D01*
X191214284Y-95002095D02*
X191138093Y-95040190D01*
X191138093Y-95040190D02*
X191099998Y-95078285D01*
X191099998Y-95078285D02*
X191061903Y-95154476D01*
X191061903Y-95154476D02*
X191023808Y-95306857D01*
X191023808Y-95306857D02*
X191023808Y-95497333D01*
X191023808Y-95497333D02*
X191061903Y-95649714D01*
X191061903Y-95649714D02*
X191099998Y-95725904D01*
X191099998Y-95725904D02*
X191138093Y-95764000D01*
X191138093Y-95764000D02*
X191214284Y-95802095D01*
X191214284Y-95802095D02*
X191290474Y-95802095D01*
X191290474Y-95802095D02*
X191366665Y-95764000D01*
X191366665Y-95764000D02*
X191404760Y-95725904D01*
X191404760Y-95725904D02*
X191442855Y-95649714D01*
X191442855Y-95649714D02*
X191480951Y-95497333D01*
X191480951Y-95497333D02*
X191480951Y-95306857D01*
X191480951Y-95306857D02*
X191442855Y-95154476D01*
X191442855Y-95154476D02*
X191404760Y-95078285D01*
X191404760Y-95078285D02*
X191366665Y-95040190D01*
X191366665Y-95040190D02*
X191290474Y-95002095D01*
X190680950Y-95725904D02*
X190642855Y-95764000D01*
X190642855Y-95764000D02*
X190680950Y-95802095D01*
X190680950Y-95802095D02*
X190719046Y-95764000D01*
X190719046Y-95764000D02*
X190680950Y-95725904D01*
X190680950Y-95725904D02*
X190680950Y-95802095D01*
X189880951Y-95802095D02*
X190338094Y-95802095D01*
X190109522Y-95802095D02*
X190109522Y-95002095D01*
X190109522Y-95002095D02*
X190185713Y-95116380D01*
X190185713Y-95116380D02*
X190261903Y-95192571D01*
X190261903Y-95192571D02*
X190338094Y-95230666D01*
X189538093Y-95725904D02*
X189499998Y-95764000D01*
X189499998Y-95764000D02*
X189538093Y-95802095D01*
X189538093Y-95802095D02*
X189576189Y-95764000D01*
X189576189Y-95764000D02*
X189538093Y-95725904D01*
X189538093Y-95725904D02*
X189538093Y-95802095D01*
X188738094Y-95802095D02*
X189195237Y-95802095D01*
X188966665Y-95802095D02*
X188966665Y-95002095D01*
X188966665Y-95002095D02*
X189042856Y-95116380D01*
X189042856Y-95116380D02*
X189119046Y-95192571D01*
X189119046Y-95192571D02*
X189195237Y-95230666D01*
D11*
X206517857Y-104191904D02*
X206041667Y-104191904D01*
X206648810Y-104477619D02*
X206190476Y-103477619D01*
X206190476Y-103477619D02*
X205982143Y-104477619D01*
X205666667Y-103810952D02*
X205559525Y-104477619D01*
X205559525Y-104477619D02*
X205309525Y-104001428D01*
X205309525Y-104001428D02*
X205178572Y-104477619D01*
X205178572Y-104477619D02*
X204904763Y-103810952D01*
X204226191Y-104430000D02*
X204327381Y-104477619D01*
X204327381Y-104477619D02*
X204517858Y-104477619D01*
X204517858Y-104477619D02*
X204607143Y-104430000D01*
X204607143Y-104430000D02*
X204642858Y-104334761D01*
X204642858Y-104334761D02*
X204595239Y-103953809D01*
X204595239Y-103953809D02*
X204535715Y-103858571D01*
X204535715Y-103858571D02*
X204434524Y-103810952D01*
X204434524Y-103810952D02*
X204244048Y-103810952D01*
X204244048Y-103810952D02*
X204154762Y-103858571D01*
X204154762Y-103858571D02*
X204119048Y-103953809D01*
X204119048Y-103953809D02*
X204130953Y-104049047D01*
X204130953Y-104049047D02*
X204619048Y-104144285D01*
X203803572Y-104430000D02*
X203714287Y-104477619D01*
X203714287Y-104477619D02*
X203523810Y-104477619D01*
X203523810Y-104477619D02*
X203422620Y-104430000D01*
X203422620Y-104430000D02*
X203363096Y-104334761D01*
X203363096Y-104334761D02*
X203357144Y-104287142D01*
X203357144Y-104287142D02*
X203392858Y-104191904D01*
X203392858Y-104191904D02*
X203482144Y-104144285D01*
X203482144Y-104144285D02*
X203625001Y-104144285D01*
X203625001Y-104144285D02*
X203714287Y-104096666D01*
X203714287Y-104096666D02*
X203750001Y-104001428D01*
X203750001Y-104001428D02*
X203744049Y-103953809D01*
X203744049Y-103953809D02*
X203684525Y-103858571D01*
X203684525Y-103858571D02*
X203583334Y-103810952D01*
X203583334Y-103810952D02*
X203440477Y-103810952D01*
X203440477Y-103810952D02*
X203351191Y-103858571D01*
X202815478Y-104477619D02*
X202904763Y-104430000D01*
X202904763Y-104430000D02*
X202946430Y-104382380D01*
X202946430Y-104382380D02*
X202982144Y-104287142D01*
X202982144Y-104287142D02*
X202946430Y-104001428D01*
X202946430Y-104001428D02*
X202886906Y-103906190D01*
X202886906Y-103906190D02*
X202833335Y-103858571D01*
X202833335Y-103858571D02*
X202732144Y-103810952D01*
X202732144Y-103810952D02*
X202589287Y-103810952D01*
X202589287Y-103810952D02*
X202500001Y-103858571D01*
X202500001Y-103858571D02*
X202458335Y-103906190D01*
X202458335Y-103906190D02*
X202422620Y-104001428D01*
X202422620Y-104001428D02*
X202458335Y-104287142D01*
X202458335Y-104287142D02*
X202517858Y-104382380D01*
X202517858Y-104382380D02*
X202571430Y-104430000D01*
X202571430Y-104430000D02*
X202672620Y-104477619D01*
X202672620Y-104477619D02*
X202815478Y-104477619D01*
X202059525Y-104477619D02*
X201976191Y-103810952D01*
X201988096Y-103906190D02*
X201934525Y-103858571D01*
X201934525Y-103858571D02*
X201833334Y-103810952D01*
X201833334Y-103810952D02*
X201690477Y-103810952D01*
X201690477Y-103810952D02*
X201601191Y-103858571D01*
X201601191Y-103858571D02*
X201565477Y-103953809D01*
X201565477Y-103953809D02*
X201630953Y-104477619D01*
X201565477Y-103953809D02*
X201505953Y-103858571D01*
X201505953Y-103858571D02*
X201404763Y-103810952D01*
X201404763Y-103810952D02*
X201261906Y-103810952D01*
X201261906Y-103810952D02*
X201172620Y-103858571D01*
X201172620Y-103858571D02*
X201136906Y-103953809D01*
X201136906Y-103953809D02*
X201202382Y-104477619D01*
X200345239Y-104430000D02*
X200446429Y-104477619D01*
X200446429Y-104477619D02*
X200636906Y-104477619D01*
X200636906Y-104477619D02*
X200726191Y-104430000D01*
X200726191Y-104430000D02*
X200761906Y-104334761D01*
X200761906Y-104334761D02*
X200714287Y-103953809D01*
X200714287Y-103953809D02*
X200654763Y-103858571D01*
X200654763Y-103858571D02*
X200553572Y-103810952D01*
X200553572Y-103810952D02*
X200363096Y-103810952D01*
X200363096Y-103810952D02*
X200273810Y-103858571D01*
X200273810Y-103858571D02*
X200238096Y-103953809D01*
X200238096Y-103953809D02*
X200250001Y-104049047D01*
X200250001Y-104049047D02*
X200738096Y-104144285D01*
X199178572Y-103810952D02*
X198797620Y-103810952D01*
X198994049Y-103477619D02*
X199101192Y-104334761D01*
X199101192Y-104334761D02*
X199065477Y-104430000D01*
X199065477Y-104430000D02*
X198976192Y-104477619D01*
X198976192Y-104477619D02*
X198880953Y-104477619D01*
X198041668Y-103810952D02*
X198125001Y-104477619D01*
X198470239Y-103810952D02*
X198535716Y-104334761D01*
X198535716Y-104334761D02*
X198500001Y-104430000D01*
X198500001Y-104430000D02*
X198410716Y-104477619D01*
X198410716Y-104477619D02*
X198267858Y-104477619D01*
X198267858Y-104477619D02*
X198166668Y-104430000D01*
X198166668Y-104430000D02*
X198113096Y-104382380D01*
X197714286Y-103810952D02*
X197333334Y-103810952D01*
X197529763Y-103477619D02*
X197636906Y-104334761D01*
X197636906Y-104334761D02*
X197601191Y-104430000D01*
X197601191Y-104430000D02*
X197511906Y-104477619D01*
X197511906Y-104477619D02*
X197416667Y-104477619D01*
X196946430Y-104477619D02*
X197035715Y-104430000D01*
X197035715Y-104430000D02*
X197077382Y-104382380D01*
X197077382Y-104382380D02*
X197113096Y-104287142D01*
X197113096Y-104287142D02*
X197077382Y-104001428D01*
X197077382Y-104001428D02*
X197017858Y-103906190D01*
X197017858Y-103906190D02*
X196964287Y-103858571D01*
X196964287Y-103858571D02*
X196863096Y-103810952D01*
X196863096Y-103810952D02*
X196720239Y-103810952D01*
X196720239Y-103810952D02*
X196630953Y-103858571D01*
X196630953Y-103858571D02*
X196589287Y-103906190D01*
X196589287Y-103906190D02*
X196553572Y-104001428D01*
X196553572Y-104001428D02*
X196589287Y-104287142D01*
X196589287Y-104287142D02*
X196648810Y-104382380D01*
X196648810Y-104382380D02*
X196702382Y-104430000D01*
X196702382Y-104430000D02*
X196803572Y-104477619D01*
X196803572Y-104477619D02*
X196946430Y-104477619D01*
X196190477Y-104477619D02*
X196107143Y-103810952D01*
X196130953Y-104001428D02*
X196071429Y-103906190D01*
X196071429Y-103906190D02*
X196017858Y-103858571D01*
X196017858Y-103858571D02*
X195916667Y-103810952D01*
X195916667Y-103810952D02*
X195821429Y-103810952D01*
X195577382Y-104477619D02*
X195494048Y-103810952D01*
X195452382Y-103477619D02*
X195505953Y-103525238D01*
X195505953Y-103525238D02*
X195464286Y-103572857D01*
X195464286Y-103572857D02*
X195410715Y-103525238D01*
X195410715Y-103525238D02*
X195452382Y-103477619D01*
X195452382Y-103477619D02*
X195464286Y-103572857D01*
X194678572Y-104477619D02*
X194613096Y-103953809D01*
X194613096Y-103953809D02*
X194648810Y-103858571D01*
X194648810Y-103858571D02*
X194738096Y-103810952D01*
X194738096Y-103810952D02*
X194928572Y-103810952D01*
X194928572Y-103810952D02*
X195029763Y-103858571D01*
X194672620Y-104430000D02*
X194773810Y-104477619D01*
X194773810Y-104477619D02*
X195011906Y-104477619D01*
X195011906Y-104477619D02*
X195101191Y-104430000D01*
X195101191Y-104430000D02*
X195136906Y-104334761D01*
X195136906Y-104334761D02*
X195125001Y-104239523D01*
X195125001Y-104239523D02*
X195065477Y-104144285D01*
X195065477Y-104144285D02*
X194964287Y-104096666D01*
X194964287Y-104096666D02*
X194726191Y-104096666D01*
X194726191Y-104096666D02*
X194625001Y-104049047D01*
X194065477Y-104477619D02*
X194154762Y-104430000D01*
X194154762Y-104430000D02*
X194190477Y-104334761D01*
X194190477Y-104334761D02*
X194083334Y-103477619D01*
X192928572Y-104477619D02*
X192803572Y-103477619D01*
X192851191Y-103858571D02*
X192750000Y-103810952D01*
X192750000Y-103810952D02*
X192559524Y-103810952D01*
X192559524Y-103810952D02*
X192470238Y-103858571D01*
X192470238Y-103858571D02*
X192428572Y-103906190D01*
X192428572Y-103906190D02*
X192392857Y-104001428D01*
X192392857Y-104001428D02*
X192428572Y-104287142D01*
X192428572Y-104287142D02*
X192488095Y-104382380D01*
X192488095Y-104382380D02*
X192541667Y-104430000D01*
X192541667Y-104430000D02*
X192642857Y-104477619D01*
X192642857Y-104477619D02*
X192833334Y-104477619D01*
X192833334Y-104477619D02*
X192922619Y-104430000D01*
X192041666Y-103810952D02*
X191886905Y-104477619D01*
X191565476Y-103810952D02*
X191886905Y-104477619D01*
X191886905Y-104477619D02*
X192011905Y-104715714D01*
X192011905Y-104715714D02*
X192065476Y-104763333D01*
X192065476Y-104763333D02*
X192166666Y-104810952D01*
X190553571Y-104477619D02*
X190428571Y-103477619D01*
X190428571Y-103477619D02*
X190047618Y-103477619D01*
X190047618Y-103477619D02*
X189958333Y-103525238D01*
X189958333Y-103525238D02*
X189916666Y-103572857D01*
X189916666Y-103572857D02*
X189880952Y-103668095D01*
X189880952Y-103668095D02*
X189898809Y-103810952D01*
X189898809Y-103810952D02*
X189958333Y-103906190D01*
X189958333Y-103906190D02*
X190011904Y-103953809D01*
X190011904Y-103953809D02*
X190113094Y-104001428D01*
X190113094Y-104001428D02*
X190494047Y-104001428D01*
X189559523Y-104477619D02*
X189434523Y-103477619D01*
X189130951Y-104477619D02*
X189065475Y-103953809D01*
X189065475Y-103953809D02*
X189101189Y-103858571D01*
X189101189Y-103858571D02*
X189190475Y-103810952D01*
X189190475Y-103810952D02*
X189333332Y-103810952D01*
X189333332Y-103810952D02*
X189434523Y-103858571D01*
X189434523Y-103858571D02*
X189488094Y-103906190D01*
X188660713Y-104477619D02*
X188577379Y-103810952D01*
X188535713Y-103477619D02*
X188589284Y-103525238D01*
X188589284Y-103525238D02*
X188547617Y-103572857D01*
X188547617Y-103572857D02*
X188494046Y-103525238D01*
X188494046Y-103525238D02*
X188535713Y-103477619D01*
X188535713Y-103477619D02*
X188547617Y-103572857D01*
X188047618Y-104477619D02*
X188136903Y-104430000D01*
X188136903Y-104430000D02*
X188172618Y-104334761D01*
X188172618Y-104334761D02*
X188065475Y-103477619D01*
X187499999Y-103477619D02*
X187619046Y-103668095D01*
X187238094Y-104430000D02*
X187148809Y-104477619D01*
X187148809Y-104477619D02*
X186958332Y-104477619D01*
X186958332Y-104477619D02*
X186857142Y-104430000D01*
X186857142Y-104430000D02*
X186797618Y-104334761D01*
X186797618Y-104334761D02*
X186791666Y-104287142D01*
X186791666Y-104287142D02*
X186827380Y-104191904D01*
X186827380Y-104191904D02*
X186916666Y-104144285D01*
X186916666Y-104144285D02*
X187059523Y-104144285D01*
X187059523Y-104144285D02*
X187148809Y-104096666D01*
X187148809Y-104096666D02*
X187184523Y-104001428D01*
X187184523Y-104001428D02*
X187178571Y-103953809D01*
X187178571Y-103953809D02*
X187119047Y-103858571D01*
X187119047Y-103858571D02*
X187017856Y-103810952D01*
X187017856Y-103810952D02*
X186874999Y-103810952D01*
X186874999Y-103810952D02*
X186785713Y-103858571D01*
X185154761Y-104477619D02*
X185630952Y-104477619D01*
X185630952Y-104477619D02*
X185505952Y-103477619D01*
X184398809Y-104477619D02*
X184333333Y-103953809D01*
X184333333Y-103953809D02*
X184369047Y-103858571D01*
X184369047Y-103858571D02*
X184458333Y-103810952D01*
X184458333Y-103810952D02*
X184648809Y-103810952D01*
X184648809Y-103810952D02*
X184750000Y-103858571D01*
X184392857Y-104430000D02*
X184494047Y-104477619D01*
X184494047Y-104477619D02*
X184732143Y-104477619D01*
X184732143Y-104477619D02*
X184821428Y-104430000D01*
X184821428Y-104430000D02*
X184857143Y-104334761D01*
X184857143Y-104334761D02*
X184845238Y-104239523D01*
X184845238Y-104239523D02*
X184785714Y-104144285D01*
X184785714Y-104144285D02*
X184684524Y-104096666D01*
X184684524Y-104096666D02*
X184446428Y-104096666D01*
X184446428Y-104096666D02*
X184345238Y-104049047D01*
X183928571Y-104477619D02*
X183803571Y-103477619D01*
X183851190Y-103858571D02*
X183749999Y-103810952D01*
X183749999Y-103810952D02*
X183559523Y-103810952D01*
X183559523Y-103810952D02*
X183470237Y-103858571D01*
X183470237Y-103858571D02*
X183428571Y-103906190D01*
X183428571Y-103906190D02*
X183392856Y-104001428D01*
X183392856Y-104001428D02*
X183428571Y-104287142D01*
X183428571Y-104287142D02*
X183488094Y-104382380D01*
X183488094Y-104382380D02*
X183541666Y-104430000D01*
X183541666Y-104430000D02*
X183642856Y-104477619D01*
X183642856Y-104477619D02*
X183833333Y-104477619D01*
X183833333Y-104477619D02*
X183922618Y-104430000D01*
X208949405Y-106658571D02*
X208991072Y-106610952D01*
X208991072Y-106610952D02*
X209068453Y-106468095D01*
X209068453Y-106468095D02*
X209104167Y-106372857D01*
X209104167Y-106372857D02*
X209133929Y-106230000D01*
X209133929Y-106230000D02*
X209151786Y-105991904D01*
X209151786Y-105991904D02*
X209127977Y-105801428D01*
X209127977Y-105801428D02*
X209050596Y-105563333D01*
X209050596Y-105563333D02*
X208985120Y-105420476D01*
X208985120Y-105420476D02*
X208925596Y-105325238D01*
X208925596Y-105325238D02*
X208812501Y-105182380D01*
X208812501Y-105182380D02*
X208758929Y-105134761D01*
X208574406Y-106277619D02*
X208449406Y-105277619D01*
X208145834Y-106277619D02*
X208080358Y-105753809D01*
X208080358Y-105753809D02*
X208116072Y-105658571D01*
X208116072Y-105658571D02*
X208205358Y-105610952D01*
X208205358Y-105610952D02*
X208348215Y-105610952D01*
X208348215Y-105610952D02*
X208449406Y-105658571D01*
X208449406Y-105658571D02*
X208502977Y-105706190D01*
X207735119Y-105610952D02*
X207354167Y-105610952D01*
X207550596Y-105277619D02*
X207657739Y-106134761D01*
X207657739Y-106134761D02*
X207622024Y-106230000D01*
X207622024Y-106230000D02*
X207532739Y-106277619D01*
X207532739Y-106277619D02*
X207437500Y-106277619D01*
X207169643Y-105610952D02*
X206788691Y-105610952D01*
X206985120Y-105277619D02*
X207092263Y-106134761D01*
X207092263Y-106134761D02*
X207056548Y-106230000D01*
X207056548Y-106230000D02*
X206967263Y-106277619D01*
X206967263Y-106277619D02*
X206872024Y-106277619D01*
X206461310Y-105610952D02*
X206586310Y-106610952D01*
X206467263Y-105658571D02*
X206366072Y-105610952D01*
X206366072Y-105610952D02*
X206175596Y-105610952D01*
X206175596Y-105610952D02*
X206086310Y-105658571D01*
X206086310Y-105658571D02*
X206044644Y-105706190D01*
X206044644Y-105706190D02*
X206008929Y-105801428D01*
X206008929Y-105801428D02*
X206044644Y-106087142D01*
X206044644Y-106087142D02*
X206104167Y-106182380D01*
X206104167Y-106182380D02*
X206157739Y-106230000D01*
X206157739Y-106230000D02*
X206258929Y-106277619D01*
X206258929Y-106277619D02*
X206449406Y-106277619D01*
X206449406Y-106277619D02*
X206538691Y-106230000D01*
X205729167Y-106230000D02*
X205639882Y-106277619D01*
X205639882Y-106277619D02*
X205449405Y-106277619D01*
X205449405Y-106277619D02*
X205348215Y-106230000D01*
X205348215Y-106230000D02*
X205288691Y-106134761D01*
X205288691Y-106134761D02*
X205282739Y-106087142D01*
X205282739Y-106087142D02*
X205318453Y-105991904D01*
X205318453Y-105991904D02*
X205407739Y-105944285D01*
X205407739Y-105944285D02*
X205550596Y-105944285D01*
X205550596Y-105944285D02*
X205639882Y-105896666D01*
X205639882Y-105896666D02*
X205675596Y-105801428D01*
X205675596Y-105801428D02*
X205669644Y-105753809D01*
X205669644Y-105753809D02*
X205610120Y-105658571D01*
X205610120Y-105658571D02*
X205508929Y-105610952D01*
X205508929Y-105610952D02*
X205366072Y-105610952D01*
X205366072Y-105610952D02*
X205276786Y-105658571D01*
X204872025Y-106182380D02*
X204830358Y-106230000D01*
X204830358Y-106230000D02*
X204883930Y-106277619D01*
X204883930Y-106277619D02*
X204925596Y-106230000D01*
X204925596Y-106230000D02*
X204872025Y-106182380D01*
X204872025Y-106182380D02*
X204883930Y-106277619D01*
X204806549Y-105658571D02*
X204764882Y-105706190D01*
X204764882Y-105706190D02*
X204818453Y-105753809D01*
X204818453Y-105753809D02*
X204860120Y-105706190D01*
X204860120Y-105706190D02*
X204806549Y-105658571D01*
X204806549Y-105658571D02*
X204818453Y-105753809D01*
X203568454Y-105230000D02*
X204586311Y-106515714D01*
X202556549Y-105230000D02*
X203574406Y-106515714D01*
X202401786Y-105610952D02*
X202294644Y-106277619D01*
X202294644Y-106277619D02*
X202044644Y-105801428D01*
X202044644Y-105801428D02*
X201913691Y-106277619D01*
X201913691Y-106277619D02*
X201639882Y-105610952D01*
X201360119Y-105610952D02*
X201252977Y-106277619D01*
X201252977Y-106277619D02*
X201002977Y-105801428D01*
X201002977Y-105801428D02*
X200872024Y-106277619D01*
X200872024Y-106277619D02*
X200598215Y-105610952D01*
X200318452Y-105610952D02*
X200211310Y-106277619D01*
X200211310Y-106277619D02*
X199961310Y-105801428D01*
X199961310Y-105801428D02*
X199830357Y-106277619D01*
X199830357Y-106277619D02*
X199556548Y-105610952D01*
X199252976Y-106182380D02*
X199211309Y-106230000D01*
X199211309Y-106230000D02*
X199264881Y-106277619D01*
X199264881Y-106277619D02*
X199306547Y-106230000D01*
X199306547Y-106230000D02*
X199252976Y-106182380D01*
X199252976Y-106182380D02*
X199264881Y-106277619D01*
X198806547Y-105610952D02*
X198651786Y-106277619D01*
X198330357Y-105610952D02*
X198651786Y-106277619D01*
X198651786Y-106277619D02*
X198776786Y-106515714D01*
X198776786Y-106515714D02*
X198830357Y-106563333D01*
X198830357Y-106563333D02*
X198931547Y-106610952D01*
X197937500Y-106277619D02*
X198026785Y-106230000D01*
X198026785Y-106230000D02*
X198068452Y-106182380D01*
X198068452Y-106182380D02*
X198104166Y-106087142D01*
X198104166Y-106087142D02*
X198068452Y-105801428D01*
X198068452Y-105801428D02*
X198008928Y-105706190D01*
X198008928Y-105706190D02*
X197955357Y-105658571D01*
X197955357Y-105658571D02*
X197854166Y-105610952D01*
X197854166Y-105610952D02*
X197711309Y-105610952D01*
X197711309Y-105610952D02*
X197622023Y-105658571D01*
X197622023Y-105658571D02*
X197580357Y-105706190D01*
X197580357Y-105706190D02*
X197544642Y-105801428D01*
X197544642Y-105801428D02*
X197580357Y-106087142D01*
X197580357Y-106087142D02*
X197639880Y-106182380D01*
X197639880Y-106182380D02*
X197693452Y-106230000D01*
X197693452Y-106230000D02*
X197794642Y-106277619D01*
X197794642Y-106277619D02*
X197937500Y-106277619D01*
X196669642Y-105610952D02*
X196752975Y-106277619D01*
X197098213Y-105610952D02*
X197163690Y-106134761D01*
X197163690Y-106134761D02*
X197127975Y-106230000D01*
X197127975Y-106230000D02*
X197038690Y-106277619D01*
X197038690Y-106277619D02*
X196895832Y-106277619D01*
X196895832Y-106277619D02*
X196794642Y-106230000D01*
X196794642Y-106230000D02*
X196741070Y-106182380D01*
X196342260Y-105610952D02*
X195961308Y-105610952D01*
X196157737Y-105277619D02*
X196264880Y-106134761D01*
X196264880Y-106134761D02*
X196229165Y-106230000D01*
X196229165Y-106230000D02*
X196139880Y-106277619D01*
X196139880Y-106277619D02*
X196044641Y-106277619D01*
X195205356Y-105610952D02*
X195288689Y-106277619D01*
X195633927Y-105610952D02*
X195699404Y-106134761D01*
X195699404Y-106134761D02*
X195663689Y-106230000D01*
X195663689Y-106230000D02*
X195574404Y-106277619D01*
X195574404Y-106277619D02*
X195431546Y-106277619D01*
X195431546Y-106277619D02*
X195330356Y-106230000D01*
X195330356Y-106230000D02*
X195276784Y-106182380D01*
X194818451Y-106277619D02*
X194693451Y-105277619D01*
X194741070Y-105658571D02*
X194639879Y-105610952D01*
X194639879Y-105610952D02*
X194449403Y-105610952D01*
X194449403Y-105610952D02*
X194360117Y-105658571D01*
X194360117Y-105658571D02*
X194318451Y-105706190D01*
X194318451Y-105706190D02*
X194282736Y-105801428D01*
X194282736Y-105801428D02*
X194318451Y-106087142D01*
X194318451Y-106087142D02*
X194377974Y-106182380D01*
X194377974Y-106182380D02*
X194431546Y-106230000D01*
X194431546Y-106230000D02*
X194532736Y-106277619D01*
X194532736Y-106277619D02*
X194723213Y-106277619D01*
X194723213Y-106277619D02*
X194812498Y-106230000D01*
X193532736Y-106230000D02*
X193633926Y-106277619D01*
X193633926Y-106277619D02*
X193824403Y-106277619D01*
X193824403Y-106277619D02*
X193913688Y-106230000D01*
X193913688Y-106230000D02*
X193949403Y-106134761D01*
X193949403Y-106134761D02*
X193901784Y-105753809D01*
X193901784Y-105753809D02*
X193842260Y-105658571D01*
X193842260Y-105658571D02*
X193741069Y-105610952D01*
X193741069Y-105610952D02*
X193550593Y-105610952D01*
X193550593Y-105610952D02*
X193461307Y-105658571D01*
X193461307Y-105658571D02*
X193425593Y-105753809D01*
X193425593Y-105753809D02*
X193437498Y-105849047D01*
X193437498Y-105849047D02*
X193925593Y-105944285D01*
X193056546Y-106182380D02*
X193014879Y-106230000D01*
X193014879Y-106230000D02*
X193068451Y-106277619D01*
X193068451Y-106277619D02*
X193110117Y-106230000D01*
X193110117Y-106230000D02*
X193056546Y-106182380D01*
X193056546Y-106182380D02*
X193068451Y-106277619D01*
X192163689Y-106230000D02*
X192264879Y-106277619D01*
X192264879Y-106277619D02*
X192455356Y-106277619D01*
X192455356Y-106277619D02*
X192544641Y-106230000D01*
X192544641Y-106230000D02*
X192586308Y-106182380D01*
X192586308Y-106182380D02*
X192622022Y-106087142D01*
X192622022Y-106087142D02*
X192586308Y-105801428D01*
X192586308Y-105801428D02*
X192526784Y-105706190D01*
X192526784Y-105706190D02*
X192473213Y-105658571D01*
X192473213Y-105658571D02*
X192372022Y-105610952D01*
X192372022Y-105610952D02*
X192181546Y-105610952D01*
X192181546Y-105610952D02*
X192092260Y-105658571D01*
X191604166Y-106277619D02*
X191693451Y-106230000D01*
X191693451Y-106230000D02*
X191735118Y-106182380D01*
X191735118Y-106182380D02*
X191770832Y-106087142D01*
X191770832Y-106087142D02*
X191735118Y-105801428D01*
X191735118Y-105801428D02*
X191675594Y-105706190D01*
X191675594Y-105706190D02*
X191622023Y-105658571D01*
X191622023Y-105658571D02*
X191520832Y-105610952D01*
X191520832Y-105610952D02*
X191377975Y-105610952D01*
X191377975Y-105610952D02*
X191288689Y-105658571D01*
X191288689Y-105658571D02*
X191247023Y-105706190D01*
X191247023Y-105706190D02*
X191211308Y-105801428D01*
X191211308Y-105801428D02*
X191247023Y-106087142D01*
X191247023Y-106087142D02*
X191306546Y-106182380D01*
X191306546Y-106182380D02*
X191360118Y-106230000D01*
X191360118Y-106230000D02*
X191461308Y-106277619D01*
X191461308Y-106277619D02*
X191604166Y-106277619D01*
X190848213Y-106277619D02*
X190764879Y-105610952D01*
X190776784Y-105706190D02*
X190723213Y-105658571D01*
X190723213Y-105658571D02*
X190622022Y-105610952D01*
X190622022Y-105610952D02*
X190479165Y-105610952D01*
X190479165Y-105610952D02*
X190389879Y-105658571D01*
X190389879Y-105658571D02*
X190354165Y-105753809D01*
X190354165Y-105753809D02*
X190419641Y-106277619D01*
X190354165Y-105753809D02*
X190294641Y-105658571D01*
X190294641Y-105658571D02*
X190193451Y-105610952D01*
X190193451Y-105610952D02*
X190050594Y-105610952D01*
X190050594Y-105610952D02*
X189961308Y-105658571D01*
X189961308Y-105658571D02*
X189925594Y-105753809D01*
X189925594Y-105753809D02*
X189991070Y-106277619D01*
X188675594Y-105230000D02*
X189693451Y-106515714D01*
X187830355Y-105801428D02*
X187872022Y-105753809D01*
X187872022Y-105753809D02*
X187961308Y-105706190D01*
X187961308Y-105706190D02*
X188056546Y-105706190D01*
X188056546Y-105706190D02*
X188157736Y-105753809D01*
X188157736Y-105753809D02*
X188211308Y-105801428D01*
X188211308Y-105801428D02*
X188270831Y-105896666D01*
X188270831Y-105896666D02*
X188282736Y-105991904D01*
X188282736Y-105991904D02*
X188247022Y-106087142D01*
X188247022Y-106087142D02*
X188205355Y-106134761D01*
X188205355Y-106134761D02*
X188116070Y-106182380D01*
X188116070Y-106182380D02*
X188020831Y-106182380D01*
X188020831Y-106182380D02*
X187919641Y-106134761D01*
X187919641Y-106134761D02*
X187866070Y-106087142D01*
X187818450Y-105706190D02*
X187866070Y-106087142D01*
X187866070Y-106087142D02*
X187824403Y-106134761D01*
X187824403Y-106134761D02*
X187776784Y-106134761D01*
X187776784Y-106134761D02*
X187675593Y-106087142D01*
X187675593Y-106087142D02*
X187616070Y-105991904D01*
X187616070Y-105991904D02*
X187586308Y-105753809D01*
X187586308Y-105753809D02*
X187663689Y-105610952D01*
X187663689Y-105610952D02*
X187794641Y-105515714D01*
X187794641Y-105515714D02*
X187979165Y-105468095D01*
X187979165Y-105468095D02*
X188175593Y-105515714D01*
X188175593Y-105515714D02*
X188330355Y-105610952D01*
X188330355Y-105610952D02*
X188443450Y-105753809D01*
X188443450Y-105753809D02*
X188514879Y-105944285D01*
X188514879Y-105944285D02*
X188491070Y-106134761D01*
X188491070Y-106134761D02*
X188413689Y-106277619D01*
X188413689Y-106277619D02*
X188282736Y-106372857D01*
X188282736Y-106372857D02*
X188098212Y-106420476D01*
X188098212Y-106420476D02*
X187901784Y-106372857D01*
X187901784Y-106372857D02*
X187747022Y-106277619D01*
X187247022Y-106277619D02*
X187122022Y-105277619D01*
X187122022Y-105277619D02*
X186741069Y-105277619D01*
X186741069Y-105277619D02*
X186651784Y-105325238D01*
X186651784Y-105325238D02*
X186610117Y-105372857D01*
X186610117Y-105372857D02*
X186574403Y-105468095D01*
X186574403Y-105468095D02*
X186592260Y-105610952D01*
X186592260Y-105610952D02*
X186651784Y-105706190D01*
X186651784Y-105706190D02*
X186705355Y-105753809D01*
X186705355Y-105753809D02*
X186806545Y-105801428D01*
X186806545Y-105801428D02*
X187187498Y-105801428D01*
X186252974Y-106277619D02*
X186127974Y-105277619D01*
X185824402Y-106277619D02*
X185758926Y-105753809D01*
X185758926Y-105753809D02*
X185794640Y-105658571D01*
X185794640Y-105658571D02*
X185883926Y-105610952D01*
X185883926Y-105610952D02*
X186026783Y-105610952D01*
X186026783Y-105610952D02*
X186127974Y-105658571D01*
X186127974Y-105658571D02*
X186181545Y-105706190D01*
X185354164Y-106277619D02*
X185270830Y-105610952D01*
X185229164Y-105277619D02*
X185282735Y-105325238D01*
X185282735Y-105325238D02*
X185241068Y-105372857D01*
X185241068Y-105372857D02*
X185187497Y-105325238D01*
X185187497Y-105325238D02*
X185229164Y-105277619D01*
X185229164Y-105277619D02*
X185241068Y-105372857D01*
X184741069Y-106277619D02*
X184830354Y-106230000D01*
X184830354Y-106230000D02*
X184866069Y-106134761D01*
X184866069Y-106134761D02*
X184758926Y-105277619D01*
X184407735Y-106230000D02*
X184318450Y-106277619D01*
X184318450Y-106277619D02*
X184127973Y-106277619D01*
X184127973Y-106277619D02*
X184026783Y-106230000D01*
X184026783Y-106230000D02*
X183967259Y-106134761D01*
X183967259Y-106134761D02*
X183961307Y-106087142D01*
X183961307Y-106087142D02*
X183997021Y-105991904D01*
X183997021Y-105991904D02*
X184086307Y-105944285D01*
X184086307Y-105944285D02*
X184229164Y-105944285D01*
X184229164Y-105944285D02*
X184318450Y-105896666D01*
X184318450Y-105896666D02*
X184354164Y-105801428D01*
X184354164Y-105801428D02*
X184348212Y-105753809D01*
X184348212Y-105753809D02*
X184288688Y-105658571D01*
X184288688Y-105658571D02*
X184187497Y-105610952D01*
X184187497Y-105610952D02*
X184044640Y-105610952D01*
X184044640Y-105610952D02*
X183955354Y-105658571D01*
X183086307Y-106277619D02*
X183562498Y-106277619D01*
X183562498Y-106277619D02*
X183437498Y-105277619D01*
X182330355Y-106277619D02*
X182264879Y-105753809D01*
X182264879Y-105753809D02*
X182300593Y-105658571D01*
X182300593Y-105658571D02*
X182389879Y-105610952D01*
X182389879Y-105610952D02*
X182580355Y-105610952D01*
X182580355Y-105610952D02*
X182681546Y-105658571D01*
X182324403Y-106230000D02*
X182425593Y-106277619D01*
X182425593Y-106277619D02*
X182663689Y-106277619D01*
X182663689Y-106277619D02*
X182752974Y-106230000D01*
X182752974Y-106230000D02*
X182788689Y-106134761D01*
X182788689Y-106134761D02*
X182776784Y-106039523D01*
X182776784Y-106039523D02*
X182717260Y-105944285D01*
X182717260Y-105944285D02*
X182616070Y-105896666D01*
X182616070Y-105896666D02*
X182377974Y-105896666D01*
X182377974Y-105896666D02*
X182276784Y-105849047D01*
X181860117Y-106277619D02*
X181735117Y-105277619D01*
X181782736Y-105658571D02*
X181681545Y-105610952D01*
X181681545Y-105610952D02*
X181491069Y-105610952D01*
X181491069Y-105610952D02*
X181401783Y-105658571D01*
X181401783Y-105658571D02*
X181360117Y-105706190D01*
X181360117Y-105706190D02*
X181324402Y-105801428D01*
X181324402Y-105801428D02*
X181360117Y-106087142D01*
X181360117Y-106087142D02*
X181419640Y-106182380D01*
X181419640Y-106182380D02*
X181473212Y-106230000D01*
X181473212Y-106230000D02*
X181574402Y-106277619D01*
X181574402Y-106277619D02*
X181764879Y-106277619D01*
X181764879Y-106277619D02*
X181854164Y-106230000D01*
X181104164Y-106658571D02*
X181050592Y-106610952D01*
X181050592Y-106610952D02*
X180937497Y-106468095D01*
X180937497Y-106468095D02*
X180877973Y-106372857D01*
X180877973Y-106372857D02*
X180812497Y-106230000D01*
X180812497Y-106230000D02*
X180735116Y-105991904D01*
X180735116Y-105991904D02*
X180711307Y-105801428D01*
X180711307Y-105801428D02*
X180729164Y-105563333D01*
X180729164Y-105563333D02*
X180758926Y-105420476D01*
X180758926Y-105420476D02*
X180794640Y-105325238D01*
X180794640Y-105325238D02*
X180872021Y-105182380D01*
X180872021Y-105182380D02*
X180913688Y-105134761D01*
D10*
X200128571Y-93553809D02*
X200461904Y-93553809D01*
X200461904Y-94077619D02*
X200461904Y-93077619D01*
X200461904Y-93077619D02*
X199985714Y-93077619D01*
X199223809Y-94030000D02*
X199319047Y-94077619D01*
X199319047Y-94077619D02*
X199509523Y-94077619D01*
X199509523Y-94077619D02*
X199604761Y-94030000D01*
X199604761Y-94030000D02*
X199652380Y-93934761D01*
X199652380Y-93934761D02*
X199652380Y-93553809D01*
X199652380Y-93553809D02*
X199604761Y-93458571D01*
X199604761Y-93458571D02*
X199509523Y-93410952D01*
X199509523Y-93410952D02*
X199319047Y-93410952D01*
X199319047Y-93410952D02*
X199223809Y-93458571D01*
X199223809Y-93458571D02*
X199176190Y-93553809D01*
X199176190Y-93553809D02*
X199176190Y-93649047D01*
X199176190Y-93649047D02*
X199652380Y-93744285D01*
X198319047Y-94077619D02*
X198319047Y-93077619D01*
X198319047Y-94030000D02*
X198414285Y-94077619D01*
X198414285Y-94077619D02*
X198604761Y-94077619D01*
X198604761Y-94077619D02*
X198699999Y-94030000D01*
X198699999Y-94030000D02*
X198747618Y-93982380D01*
X198747618Y-93982380D02*
X198795237Y-93887142D01*
X198795237Y-93887142D02*
X198795237Y-93601428D01*
X198795237Y-93601428D02*
X198747618Y-93506190D01*
X198747618Y-93506190D02*
X198699999Y-93458571D01*
X198699999Y-93458571D02*
X198604761Y-93410952D01*
X198604761Y-93410952D02*
X198414285Y-93410952D01*
X198414285Y-93410952D02*
X198319047Y-93458571D01*
X197842856Y-94077619D02*
X197842856Y-93410952D01*
X197842856Y-93077619D02*
X197890475Y-93125238D01*
X197890475Y-93125238D02*
X197842856Y-93172857D01*
X197842856Y-93172857D02*
X197795237Y-93125238D01*
X197795237Y-93125238D02*
X197842856Y-93077619D01*
X197842856Y-93077619D02*
X197842856Y-93172857D01*
X196319047Y-93077619D02*
X196319047Y-93791904D01*
X196319047Y-93791904D02*
X196366666Y-93934761D01*
X196366666Y-93934761D02*
X196461904Y-94030000D01*
X196461904Y-94030000D02*
X196604761Y-94077619D01*
X196604761Y-94077619D02*
X196699999Y-94077619D01*
X195414285Y-94077619D02*
X195414285Y-93553809D01*
X195414285Y-93553809D02*
X195461904Y-93458571D01*
X195461904Y-93458571D02*
X195557142Y-93410952D01*
X195557142Y-93410952D02*
X195747618Y-93410952D01*
X195747618Y-93410952D02*
X195842856Y-93458571D01*
X195414285Y-94030000D02*
X195509523Y-94077619D01*
X195509523Y-94077619D02*
X195747618Y-94077619D01*
X195747618Y-94077619D02*
X195842856Y-94030000D01*
X195842856Y-94030000D02*
X195890475Y-93934761D01*
X195890475Y-93934761D02*
X195890475Y-93839523D01*
X195890475Y-93839523D02*
X195842856Y-93744285D01*
X195842856Y-93744285D02*
X195747618Y-93696666D01*
X195747618Y-93696666D02*
X195509523Y-93696666D01*
X195509523Y-93696666D02*
X195414285Y-93649047D01*
X194938094Y-94077619D02*
X194938094Y-93410952D01*
X194938094Y-93506190D02*
X194890475Y-93458571D01*
X194890475Y-93458571D02*
X194795237Y-93410952D01*
X194795237Y-93410952D02*
X194652380Y-93410952D01*
X194652380Y-93410952D02*
X194557142Y-93458571D01*
X194557142Y-93458571D02*
X194509523Y-93553809D01*
X194509523Y-93553809D02*
X194509523Y-94077619D01*
X194509523Y-93553809D02*
X194461904Y-93458571D01*
X194461904Y-93458571D02*
X194366666Y-93410952D01*
X194366666Y-93410952D02*
X194223809Y-93410952D01*
X194223809Y-93410952D02*
X194128570Y-93458571D01*
X194128570Y-93458571D02*
X194080951Y-93553809D01*
X194080951Y-93553809D02*
X194080951Y-94077619D01*
X193461904Y-94077619D02*
X193557142Y-94030000D01*
X193557142Y-94030000D02*
X193604761Y-93982380D01*
X193604761Y-93982380D02*
X193652380Y-93887142D01*
X193652380Y-93887142D02*
X193652380Y-93601428D01*
X193652380Y-93601428D02*
X193604761Y-93506190D01*
X193604761Y-93506190D02*
X193557142Y-93458571D01*
X193557142Y-93458571D02*
X193461904Y-93410952D01*
X193461904Y-93410952D02*
X193319047Y-93410952D01*
X193319047Y-93410952D02*
X193223809Y-93458571D01*
X193223809Y-93458571D02*
X193176190Y-93506190D01*
X193176190Y-93506190D02*
X193128571Y-93601428D01*
X193128571Y-93601428D02*
X193128571Y-93887142D01*
X193128571Y-93887142D02*
X193176190Y-93982380D01*
X193176190Y-93982380D02*
X193223809Y-94030000D01*
X193223809Y-94030000D02*
X193319047Y-94077619D01*
X193319047Y-94077619D02*
X193461904Y-94077619D01*
X192271428Y-93410952D02*
X192271428Y-94077619D01*
X192699999Y-93410952D02*
X192699999Y-93934761D01*
X192699999Y-93934761D02*
X192652380Y-94030000D01*
X192652380Y-94030000D02*
X192557142Y-94077619D01*
X192557142Y-94077619D02*
X192414285Y-94077619D01*
X192414285Y-94077619D02*
X192319047Y-94030000D01*
X192319047Y-94030000D02*
X192271428Y-93982380D01*
X191842856Y-94030000D02*
X191747618Y-94077619D01*
X191747618Y-94077619D02*
X191557142Y-94077619D01*
X191557142Y-94077619D02*
X191461904Y-94030000D01*
X191461904Y-94030000D02*
X191414285Y-93934761D01*
X191414285Y-93934761D02*
X191414285Y-93887142D01*
X191414285Y-93887142D02*
X191461904Y-93791904D01*
X191461904Y-93791904D02*
X191557142Y-93744285D01*
X191557142Y-93744285D02*
X191699999Y-93744285D01*
X191699999Y-93744285D02*
X191795237Y-93696666D01*
X191795237Y-93696666D02*
X191842856Y-93601428D01*
X191842856Y-93601428D02*
X191842856Y-93553809D01*
X191842856Y-93553809D02*
X191795237Y-93458571D01*
X191795237Y-93458571D02*
X191699999Y-93410952D01*
X191699999Y-93410952D02*
X191557142Y-93410952D01*
X191557142Y-93410952D02*
X191461904Y-93458571D01*
X191033332Y-94030000D02*
X190938094Y-94077619D01*
X190938094Y-94077619D02*
X190747618Y-94077619D01*
X190747618Y-94077619D02*
X190652380Y-94030000D01*
X190652380Y-94030000D02*
X190604761Y-93934761D01*
X190604761Y-93934761D02*
X190604761Y-93887142D01*
X190604761Y-93887142D02*
X190652380Y-93791904D01*
X190652380Y-93791904D02*
X190747618Y-93744285D01*
X190747618Y-93744285D02*
X190890475Y-93744285D01*
X190890475Y-93744285D02*
X190985713Y-93696666D01*
X190985713Y-93696666D02*
X191033332Y-93601428D01*
X191033332Y-93601428D02*
X191033332Y-93553809D01*
X191033332Y-93553809D02*
X190985713Y-93458571D01*
X190985713Y-93458571D02*
X190890475Y-93410952D01*
X190890475Y-93410952D02*
X190747618Y-93410952D01*
X190747618Y-93410952D02*
X190652380Y-93458571D01*
X190176189Y-94077619D02*
X190176189Y-93410952D01*
X190176189Y-93077619D02*
X190223808Y-93125238D01*
X190223808Y-93125238D02*
X190176189Y-93172857D01*
X190176189Y-93172857D02*
X190128570Y-93125238D01*
X190128570Y-93125238D02*
X190176189Y-93077619D01*
X190176189Y-93077619D02*
X190176189Y-93172857D01*
D12*
X204914285Y-90945000D02*
X204700000Y-91016428D01*
X204700000Y-91016428D02*
X204342857Y-91016428D01*
X204342857Y-91016428D02*
X204200000Y-90945000D01*
X204200000Y-90945000D02*
X204128571Y-90873571D01*
X204128571Y-90873571D02*
X204057142Y-90730714D01*
X204057142Y-90730714D02*
X204057142Y-90587857D01*
X204057142Y-90587857D02*
X204128571Y-90445000D01*
X204128571Y-90445000D02*
X204200000Y-90373571D01*
X204200000Y-90373571D02*
X204342857Y-90302142D01*
X204342857Y-90302142D02*
X204628571Y-90230714D01*
X204628571Y-90230714D02*
X204771428Y-90159285D01*
X204771428Y-90159285D02*
X204842857Y-90087857D01*
X204842857Y-90087857D02*
X204914285Y-89945000D01*
X204914285Y-89945000D02*
X204914285Y-89802142D01*
X204914285Y-89802142D02*
X204842857Y-89659285D01*
X204842857Y-89659285D02*
X204771428Y-89587857D01*
X204771428Y-89587857D02*
X204628571Y-89516428D01*
X204628571Y-89516428D02*
X204271428Y-89516428D01*
X204271428Y-89516428D02*
X204057142Y-89587857D01*
X203628571Y-89516428D02*
X202771429Y-89516428D01*
X203200000Y-91016428D02*
X203200000Y-89516428D01*
X202271429Y-91016428D02*
X202271429Y-89516428D01*
X202271429Y-89516428D02*
X201771429Y-90587857D01*
X201771429Y-90587857D02*
X201271429Y-89516428D01*
X201271429Y-89516428D02*
X201271429Y-91016428D01*
X200700000Y-89516428D02*
X199771428Y-89516428D01*
X199771428Y-89516428D02*
X200271428Y-90087857D01*
X200271428Y-90087857D02*
X200057143Y-90087857D01*
X200057143Y-90087857D02*
X199914286Y-90159285D01*
X199914286Y-90159285D02*
X199842857Y-90230714D01*
X199842857Y-90230714D02*
X199771428Y-90373571D01*
X199771428Y-90373571D02*
X199771428Y-90730714D01*
X199771428Y-90730714D02*
X199842857Y-90873571D01*
X199842857Y-90873571D02*
X199914286Y-90945000D01*
X199914286Y-90945000D02*
X200057143Y-91016428D01*
X200057143Y-91016428D02*
X200485714Y-91016428D01*
X200485714Y-91016428D02*
X200628571Y-90945000D01*
X200628571Y-90945000D02*
X200700000Y-90873571D01*
X199200000Y-89659285D02*
X199128572Y-89587857D01*
X199128572Y-89587857D02*
X198985715Y-89516428D01*
X198985715Y-89516428D02*
X198628572Y-89516428D01*
X198628572Y-89516428D02*
X198485715Y-89587857D01*
X198485715Y-89587857D02*
X198414286Y-89659285D01*
X198414286Y-89659285D02*
X198342857Y-89802142D01*
X198342857Y-89802142D02*
X198342857Y-89945000D01*
X198342857Y-89945000D02*
X198414286Y-90159285D01*
X198414286Y-90159285D02*
X199271429Y-91016428D01*
X199271429Y-91016428D02*
X198342857Y-91016428D01*
X196557144Y-91016428D02*
X196557144Y-89516428D01*
X195700001Y-91016428D02*
X196342858Y-90159285D01*
X195700001Y-89516428D02*
X196557144Y-90373571D01*
X195057144Y-91016428D02*
X195057144Y-90016428D01*
X195057144Y-89516428D02*
X195128572Y-89587857D01*
X195128572Y-89587857D02*
X195057144Y-89659285D01*
X195057144Y-89659285D02*
X194985715Y-89587857D01*
X194985715Y-89587857D02*
X195057144Y-89516428D01*
X195057144Y-89516428D02*
X195057144Y-89659285D01*
X193485715Y-90873571D02*
X193557143Y-90945000D01*
X193557143Y-90945000D02*
X193771429Y-91016428D01*
X193771429Y-91016428D02*
X193914286Y-91016428D01*
X193914286Y-91016428D02*
X194128572Y-90945000D01*
X194128572Y-90945000D02*
X194271429Y-90802142D01*
X194271429Y-90802142D02*
X194342858Y-90659285D01*
X194342858Y-90659285D02*
X194414286Y-90373571D01*
X194414286Y-90373571D02*
X194414286Y-90159285D01*
X194414286Y-90159285D02*
X194342858Y-89873571D01*
X194342858Y-89873571D02*
X194271429Y-89730714D01*
X194271429Y-89730714D02*
X194128572Y-89587857D01*
X194128572Y-89587857D02*
X193914286Y-89516428D01*
X193914286Y-89516428D02*
X193771429Y-89516428D01*
X193771429Y-89516428D02*
X193557143Y-89587857D01*
X193557143Y-89587857D02*
X193485715Y-89659285D01*
X192914286Y-90587857D02*
X192200001Y-90587857D01*
X193057143Y-91016428D02*
X192557143Y-89516428D01*
X192557143Y-89516428D02*
X192057143Y-91016428D01*
X191557144Y-91016428D02*
X191557144Y-89516428D01*
X191557144Y-89516428D02*
X191200001Y-89516428D01*
X191200001Y-89516428D02*
X190985715Y-89587857D01*
X190985715Y-89587857D02*
X190842858Y-89730714D01*
X190842858Y-89730714D02*
X190771429Y-89873571D01*
X190771429Y-89873571D02*
X190700001Y-90159285D01*
X190700001Y-90159285D02*
X190700001Y-90373571D01*
X190700001Y-90373571D02*
X190771429Y-90659285D01*
X190771429Y-90659285D02*
X190842858Y-90802142D01*
X190842858Y-90802142D02*
X190985715Y-90945000D01*
X190985715Y-90945000D02*
X191200001Y-91016428D01*
X191200001Y-91016428D02*
X191557144Y-91016428D01*
X188914287Y-91016428D02*
X188914287Y-89516428D01*
X188914287Y-89516428D02*
X188342858Y-89516428D01*
X188342858Y-89516428D02*
X188200001Y-89587857D01*
X188200001Y-89587857D02*
X188128572Y-89659285D01*
X188128572Y-89659285D02*
X188057144Y-89802142D01*
X188057144Y-89802142D02*
X188057144Y-90016428D01*
X188057144Y-90016428D02*
X188128572Y-90159285D01*
X188128572Y-90159285D02*
X188200001Y-90230714D01*
X188200001Y-90230714D02*
X188342858Y-90302142D01*
X188342858Y-90302142D02*
X188914287Y-90302142D01*
X186557144Y-90873571D02*
X186628572Y-90945000D01*
X186628572Y-90945000D02*
X186842858Y-91016428D01*
X186842858Y-91016428D02*
X186985715Y-91016428D01*
X186985715Y-91016428D02*
X187200001Y-90945000D01*
X187200001Y-90945000D02*
X187342858Y-90802142D01*
X187342858Y-90802142D02*
X187414287Y-90659285D01*
X187414287Y-90659285D02*
X187485715Y-90373571D01*
X187485715Y-90373571D02*
X187485715Y-90159285D01*
X187485715Y-90159285D02*
X187414287Y-89873571D01*
X187414287Y-89873571D02*
X187342858Y-89730714D01*
X187342858Y-89730714D02*
X187200001Y-89587857D01*
X187200001Y-89587857D02*
X186985715Y-89516428D01*
X186985715Y-89516428D02*
X186842858Y-89516428D01*
X186842858Y-89516428D02*
X186628572Y-89587857D01*
X186628572Y-89587857D02*
X186557144Y-89659285D01*
X185414287Y-90230714D02*
X185200001Y-90302142D01*
X185200001Y-90302142D02*
X185128572Y-90373571D01*
X185128572Y-90373571D02*
X185057144Y-90516428D01*
X185057144Y-90516428D02*
X185057144Y-90730714D01*
X185057144Y-90730714D02*
X185128572Y-90873571D01*
X185128572Y-90873571D02*
X185200001Y-90945000D01*
X185200001Y-90945000D02*
X185342858Y-91016428D01*
X185342858Y-91016428D02*
X185914287Y-91016428D01*
X185914287Y-91016428D02*
X185914287Y-89516428D01*
X185914287Y-89516428D02*
X185414287Y-89516428D01*
X185414287Y-89516428D02*
X185271430Y-89587857D01*
X185271430Y-89587857D02*
X185200001Y-89659285D01*
X185200001Y-89659285D02*
X185128572Y-89802142D01*
X185128572Y-89802142D02*
X185128572Y-89945000D01*
X185128572Y-89945000D02*
X185200001Y-90087857D01*
X185200001Y-90087857D02*
X185271430Y-90159285D01*
X185271430Y-90159285D02*
X185414287Y-90230714D01*
X185414287Y-90230714D02*
X185914287Y-90230714D01*
%TO.C,G1*%
G36*
X196217974Y-98517592D02*
G01*
X196217974Y-98646649D01*
X196084885Y-98646649D01*
X195951795Y-98646649D01*
X195951795Y-98517592D01*
X195951795Y-98388536D01*
X196084885Y-98388536D01*
X196217974Y-98388536D01*
X196217974Y-98517592D01*
G37*
G36*
X195435567Y-98517592D02*
G01*
X195435567Y-98646649D01*
X195302477Y-98646649D01*
X195169388Y-98646649D01*
X195169388Y-98517592D01*
X195169388Y-98388536D01*
X195302477Y-98388536D01*
X195435567Y-98388536D01*
X195435567Y-98517592D01*
G37*
G36*
X194653160Y-98517592D02*
G01*
X194653160Y-98646649D01*
X194520070Y-98646649D01*
X194386980Y-98646649D01*
X194386980Y-98517592D01*
X194386980Y-98388536D01*
X194520070Y-98388536D01*
X194653160Y-98388536D01*
X194653160Y-98517592D01*
G37*
G36*
X196217974Y-97993299D02*
G01*
X196217974Y-98122356D01*
X196347031Y-98122356D01*
X196476088Y-98122356D01*
X196476088Y-98255446D01*
X196476088Y-98388536D01*
X196347031Y-98388536D01*
X196217974Y-98388536D01*
X196217974Y-98259679D01*
X196217974Y-98130822D01*
X196086901Y-98128605D01*
X195955828Y-98126389D01*
X195953611Y-97995316D01*
X195951395Y-97864242D01*
X196084685Y-97864242D01*
X196217974Y-97864242D01*
X196217974Y-97993299D01*
G37*
G36*
X195435567Y-97472839D02*
G01*
X195435567Y-97606129D01*
X195564624Y-97606129D01*
X195693681Y-97606129D01*
X195693681Y-97735185D01*
X195693681Y-97864242D01*
X195564624Y-97864242D01*
X195435567Y-97864242D01*
X195435567Y-97735385D01*
X195435567Y-97606528D01*
X195304494Y-97604312D01*
X195173421Y-97602095D01*
X195173421Y-97473039D01*
X195173421Y-97343982D01*
X195304494Y-97341765D01*
X195435567Y-97339549D01*
X195435567Y-97472839D01*
G37*
G36*
X195435567Y-97993299D02*
G01*
X195435567Y-98122356D01*
X195564624Y-98122356D01*
X195693681Y-98122356D01*
X195693681Y-98255446D01*
X195693681Y-98388536D01*
X195564624Y-98388536D01*
X195435567Y-98388536D01*
X195435567Y-98259679D01*
X195435567Y-98130822D01*
X195304494Y-98128605D01*
X195173421Y-98126389D01*
X195171204Y-97995316D01*
X195168988Y-97864242D01*
X195302278Y-97864242D01*
X195435567Y-97864242D01*
X195435567Y-97993299D01*
G37*
G36*
X194653160Y-97993299D02*
G01*
X194653160Y-98122356D01*
X194782217Y-98122356D01*
X194911274Y-98122356D01*
X194911274Y-98255446D01*
X194911274Y-98388536D01*
X194782217Y-98388536D01*
X194653160Y-98388536D01*
X194653160Y-98259679D01*
X194653160Y-98130822D01*
X194522087Y-98128605D01*
X194391013Y-98126389D01*
X194388797Y-97995316D01*
X194386581Y-97864242D01*
X194519870Y-97864242D01*
X194653160Y-97864242D01*
X194653160Y-97993299D01*
G37*
G36*
X197000381Y-99429056D02*
G01*
X197000381Y-99691203D01*
X197000381Y-100477643D01*
X196871325Y-100477643D01*
X196742268Y-100477643D01*
X196742268Y-100606700D01*
X196742268Y-100735757D01*
X196609178Y-100735757D01*
X196476088Y-100735757D01*
X196476088Y-100864814D01*
X196476088Y-100993871D01*
X196347031Y-100993871D01*
X196217974Y-100993871D01*
X196217974Y-101126961D01*
X196217974Y-101260050D01*
X195391204Y-101260050D01*
X194564434Y-101260050D01*
X194564434Y-101126961D01*
X194564434Y-100993871D01*
X194435377Y-100993871D01*
X194306320Y-100993871D01*
X194306320Y-100864814D01*
X194306320Y-100735757D01*
X194173230Y-100735757D01*
X194040140Y-100735757D01*
X194040140Y-100606700D01*
X194040140Y-100477643D01*
X193648937Y-100477643D01*
X193257733Y-100477643D01*
X193257733Y-100344553D01*
X193257733Y-100211464D01*
X193265799Y-100211464D01*
X193523913Y-100211464D01*
X193782026Y-100211464D01*
X193782026Y-99820260D01*
X193782026Y-99429056D01*
X193523913Y-99429056D01*
X193265799Y-99429056D01*
X193265799Y-99820260D01*
X193265799Y-100211464D01*
X193257733Y-100211464D01*
X193128676Y-100211464D01*
X192999619Y-100211464D01*
X192999619Y-99820260D01*
X192999619Y-99429056D01*
X193128676Y-99429056D01*
X193257733Y-99429056D01*
X193257733Y-99300000D01*
X193257733Y-99170943D01*
X193519880Y-99170943D01*
X193782026Y-99170943D01*
X193782026Y-99037853D01*
X193782026Y-98904763D01*
X195391204Y-98904763D01*
X197000381Y-98904763D01*
X197000381Y-99429056D01*
G37*
%TD*%
%LPC*%
D13*
%TO.C,J1*%
X211925000Y-100350000D03*
X211925000Y-95350000D03*
D14*
X214675000Y-101725000D03*
D15*
X210875000Y-101575000D03*
X210875000Y-94125000D03*
D14*
X214675000Y-93975000D03*
%TD*%
D16*
%TO.C,SW1*%
X176250000Y-94000000D03*
X176250000Y-97000000D03*
%TD*%
D17*
%TO.C,J3*%
X192580000Y-86500000D03*
D18*
X190040000Y-86500000D03*
X187500000Y-86500000D03*
X184960000Y-86500000D03*
%TD*%
D19*
%TO.C,H3*%
X177000000Y-87000000D03*
%TD*%
%TO.C,H4*%
X214000000Y-87000000D03*
%TD*%
%TO.C,H2*%
X214000000Y-112000000D03*
%TD*%
D17*
%TO.C,J4*%
X189520000Y-112450000D03*
D18*
X192060000Y-112450000D03*
X194600000Y-112450000D03*
X197140000Y-112450000D03*
%TD*%
D19*
%TO.C,H1*%
X177000000Y-112000000D03*
%TD*%
D17*
%TO.C,J2*%
X206050000Y-86500000D03*
D18*
X203510000Y-86500000D03*
X200970000Y-86500000D03*
X198430000Y-86500000D03*
%TD*%
M02*
