%TF.GenerationSoftware,KiCad,Pcbnew,7.0.1*%
%TF.CreationDate,2023-03-26T23:28:06+01:00*%
%TF.ProjectId,STM32,53544d33-322e-46b6-9963-61645f706362,rev?*%
%TF.SameCoordinates,Original*%
%TF.FileFunction,Soldermask,Bot*%
%TF.FilePolarity,Negative*%
%FSLAX46Y46*%
G04 Gerber Fmt 4.6, Leading zero omitted, Abs format (unit mm)*
G04 Created by KiCad (PCBNEW 7.0.1) date 2023-03-26 23:28:06*
%MOMM*%
%LPD*%
G01*
G04 APERTURE LIST*
%ADD10O,0.800000X0.800000*%
%ADD11O,1.800000X1.150000*%
%ADD12O,2.000000X1.450000*%
%ADD13C,0.900000*%
%ADD14R,1.700000X1.700000*%
%ADD15O,1.700000X1.700000*%
%ADD16C,2.200000*%
G04 APERTURE END LIST*
D10*
%TO.C,J1*%
X211925000Y-100350000D03*
X211925000Y-95350000D03*
D11*
X214675000Y-101725000D03*
D12*
X210875000Y-101575000D03*
X210875000Y-94125000D03*
D11*
X214675000Y-93975000D03*
%TD*%
D13*
%TO.C,SW1*%
X176250000Y-94000000D03*
X176250000Y-97000000D03*
%TD*%
D14*
%TO.C,J3*%
X192580000Y-86500000D03*
D15*
X190040000Y-86500000D03*
X187500000Y-86500000D03*
X184960000Y-86500000D03*
%TD*%
D16*
%TO.C,H3*%
X177000000Y-87000000D03*
%TD*%
%TO.C,H4*%
X214000000Y-87000000D03*
%TD*%
%TO.C,H2*%
X214000000Y-112000000D03*
%TD*%
D14*
%TO.C,J4*%
X189520000Y-112450000D03*
D15*
X192060000Y-112450000D03*
X194600000Y-112450000D03*
X197140000Y-112450000D03*
%TD*%
D16*
%TO.C,H1*%
X177000000Y-112000000D03*
%TD*%
D14*
%TO.C,J2*%
X206050000Y-86500000D03*
D15*
X203510000Y-86500000D03*
X200970000Y-86500000D03*
X198430000Y-86500000D03*
%TD*%
M02*
