%TF.GenerationSoftware,KiCad,Pcbnew,7.0.1*%
%TF.CreationDate,2023-03-26T23:28:06+01:00*%
%TF.ProjectId,STM32,53544d33-322e-46b6-9963-61645f706362,rev?*%
%TF.SameCoordinates,Original*%
%TF.FileFunction,Copper,L2,Bot*%
%TF.FilePolarity,Positive*%
%FSLAX46Y46*%
G04 Gerber Fmt 4.6, Leading zero omitted, Abs format (unit mm)*
G04 Created by KiCad (PCBNEW 7.0.1) date 2023-03-26 23:28:06*
%MOMM*%
%LPD*%
G01*
G04 APERTURE LIST*
%TA.AperFunction,ComponentPad*%
%ADD10O,1.800000X1.150000*%
%TD*%
%TA.AperFunction,ComponentPad*%
%ADD11O,2.000000X1.450000*%
%TD*%
%TA.AperFunction,ComponentPad*%
%ADD12R,1.700000X1.700000*%
%TD*%
%TA.AperFunction,ComponentPad*%
%ADD13O,1.700000X1.700000*%
%TD*%
%TA.AperFunction,ViaPad*%
%ADD14C,0.700000*%
%TD*%
%TA.AperFunction,Conductor*%
%ADD15C,0.300000*%
%TD*%
%TA.AperFunction,Conductor*%
%ADD16C,0.500000*%
%TD*%
G04 APERTURE END LIST*
D10*
%TO.P,J1,6,Shield*%
%TO.N,GND*%
X214675000Y-101725000D03*
D11*
X210875000Y-101575000D03*
X210875000Y-94125000D03*
D10*
X214675000Y-93975000D03*
%TD*%
D12*
%TO.P,J3,1,Pin_1*%
%TO.N,+3.3V*%
X192580000Y-86500000D03*
D13*
%TO.P,J3,2,Pin_2*%
%TO.N,/USART1_TX*%
X190040000Y-86500000D03*
%TO.P,J3,3,Pin_3*%
%TO.N,/USART1_RX*%
X187500000Y-86500000D03*
%TO.P,J3,4,Pin_4*%
%TO.N,GND*%
X184960000Y-86500000D03*
%TD*%
D12*
%TO.P,J4,1,Pin_1*%
%TO.N,+3.3V*%
X189520000Y-112450000D03*
D13*
%TO.P,J4,2,Pin_2*%
%TO.N,/I2C2_SCL*%
X192060000Y-112450000D03*
%TO.P,J4,3,Pin_3*%
%TO.N,/I2C2_SDA*%
X194600000Y-112450000D03*
%TO.P,J4,4,Pin_4*%
%TO.N,GND*%
X197140000Y-112450000D03*
%TD*%
D12*
%TO.P,J2,1,Pin_1*%
%TO.N,+3.3V*%
X206050000Y-86500000D03*
D13*
%TO.P,J2,2,Pin_2*%
%TO.N,/SWDIO*%
X203510000Y-86500000D03*
%TO.P,J2,3,Pin_3*%
%TO.N,/SWCLK*%
X200970000Y-86500000D03*
%TO.P,J2,4,Pin_4*%
%TO.N,GND*%
X198430000Y-86500000D03*
%TD*%
D14*
%TO.N,GND*%
X186250000Y-103450000D03*
X192000000Y-96350000D03*
X206050000Y-101800000D03*
X178450000Y-92300000D03*
X206050000Y-100850000D03*
X206400000Y-105100000D03*
X201200000Y-97100000D03*
X186500000Y-95700000D03*
X196500000Y-101900000D03*
X209550000Y-105600000D03*
X191600000Y-99900000D03*
X186250000Y-106600000D03*
X184700000Y-95450000D03*
X188250000Y-94600000D03*
X209500000Y-96550000D03*
X205500000Y-105100000D03*
X187400000Y-98200000D03*
X192800000Y-105200000D03*
X213450000Y-107750000D03*
X183400000Y-100150000D03*
%TO.N,+3.3V*%
X191300000Y-109600000D03*
X194500000Y-107850000D03*
X193050000Y-109600000D03*
X196150000Y-107850000D03*
%TD*%
D15*
%TO.N,GND*%
X211025000Y-101725000D02*
X210875000Y-101575000D01*
X214675000Y-101725000D02*
X211025000Y-101725000D01*
X211025000Y-93975000D02*
X210875000Y-94125000D01*
X210875000Y-94125000D02*
X210875000Y-101575000D01*
X214675000Y-93975000D02*
X211025000Y-93975000D01*
D16*
%TO.N,+3.3V*%
X196150000Y-107850000D02*
X194500000Y-107850000D01*
X193050000Y-109600000D02*
X191300000Y-109600000D01*
%TD*%
%TA.AperFunction,Conductor*%
%TO.N,GND*%
G36*
X214003243Y-84000669D02*
G01*
X214133379Y-84007490D01*
X214313908Y-84017628D01*
X214326309Y-84018955D01*
X214474990Y-84042504D01*
X214476245Y-84042709D01*
X214635324Y-84069738D01*
X214646606Y-84072202D01*
X214795635Y-84112134D01*
X214797761Y-84112725D01*
X214949174Y-84156347D01*
X214959260Y-84159729D01*
X215104710Y-84215562D01*
X215107599Y-84216714D01*
X215251768Y-84276430D01*
X215260594Y-84280500D01*
X215400064Y-84351565D01*
X215403748Y-84353521D01*
X215493848Y-84403316D01*
X215539548Y-84428574D01*
X215547061Y-84433081D01*
X215678754Y-84518604D01*
X215682947Y-84521452D01*
X215809147Y-84610996D01*
X215815428Y-84615759D01*
X215937567Y-84714665D01*
X215942158Y-84718571D01*
X216057424Y-84821579D01*
X216062478Y-84826358D01*
X216173640Y-84937520D01*
X216178419Y-84942574D01*
X216281427Y-85057840D01*
X216285333Y-85062431D01*
X216384239Y-85184570D01*
X216389002Y-85190851D01*
X216478546Y-85317051D01*
X216481409Y-85321266D01*
X216566907Y-85452921D01*
X216571430Y-85460460D01*
X216646477Y-85596250D01*
X216648433Y-85599934D01*
X216719498Y-85739404D01*
X216723575Y-85748247D01*
X216783259Y-85892337D01*
X216784462Y-85895353D01*
X216840265Y-86040727D01*
X216843655Y-86050836D01*
X216887258Y-86202185D01*
X216887879Y-86204419D01*
X216927791Y-86353370D01*
X216930264Y-86364694D01*
X216957282Y-86523715D01*
X216957507Y-86525087D01*
X216981040Y-86673666D01*
X216982372Y-86686111D01*
X216992498Y-86866421D01*
X216992523Y-86866884D01*
X216999330Y-86996757D01*
X216999500Y-87003247D01*
X216999500Y-111996753D01*
X216999330Y-112003243D01*
X216992523Y-112133114D01*
X216992498Y-112133577D01*
X216982372Y-112313887D01*
X216981040Y-112326332D01*
X216957507Y-112474911D01*
X216957282Y-112476283D01*
X216930264Y-112635304D01*
X216927791Y-112646628D01*
X216887879Y-112795579D01*
X216887258Y-112797813D01*
X216843655Y-112949162D01*
X216840265Y-112959271D01*
X216784462Y-113104645D01*
X216783259Y-113107661D01*
X216723575Y-113251751D01*
X216719498Y-113260594D01*
X216648433Y-113400064D01*
X216646477Y-113403748D01*
X216571430Y-113539538D01*
X216566897Y-113547094D01*
X216481412Y-113678728D01*
X216478546Y-113682947D01*
X216389002Y-113809147D01*
X216384239Y-113815428D01*
X216285333Y-113937567D01*
X216281427Y-113942158D01*
X216178419Y-114057424D01*
X216173640Y-114062478D01*
X216062478Y-114173640D01*
X216057424Y-114178419D01*
X215942158Y-114281427D01*
X215937567Y-114285333D01*
X215815428Y-114384239D01*
X215809147Y-114389002D01*
X215682947Y-114478546D01*
X215678728Y-114481412D01*
X215547094Y-114566897D01*
X215539538Y-114571430D01*
X215403748Y-114646477D01*
X215400064Y-114648433D01*
X215260594Y-114719498D01*
X215251751Y-114723575D01*
X215107661Y-114783259D01*
X215104645Y-114784462D01*
X214959271Y-114840265D01*
X214949162Y-114843655D01*
X214797813Y-114887258D01*
X214795579Y-114887879D01*
X214646628Y-114927791D01*
X214635304Y-114930264D01*
X214476283Y-114957282D01*
X214474911Y-114957507D01*
X214326332Y-114981040D01*
X214313887Y-114982372D01*
X214133577Y-114992498D01*
X214133114Y-114992523D01*
X214003243Y-114999330D01*
X213996753Y-114999500D01*
X177003247Y-114999500D01*
X176996757Y-114999330D01*
X176866884Y-114992523D01*
X176866421Y-114992498D01*
X176686111Y-114982372D01*
X176673666Y-114981040D01*
X176525087Y-114957507D01*
X176523715Y-114957282D01*
X176364694Y-114930264D01*
X176353370Y-114927791D01*
X176204419Y-114887879D01*
X176202185Y-114887258D01*
X176050836Y-114843655D01*
X176040727Y-114840265D01*
X175895353Y-114784462D01*
X175892337Y-114783259D01*
X175748247Y-114723575D01*
X175739404Y-114719498D01*
X175599934Y-114648433D01*
X175596250Y-114646477D01*
X175460460Y-114571430D01*
X175452921Y-114566907D01*
X175321266Y-114481409D01*
X175317051Y-114478546D01*
X175190851Y-114389002D01*
X175184570Y-114384239D01*
X175062431Y-114285333D01*
X175057840Y-114281427D01*
X174942574Y-114178419D01*
X174937520Y-114173640D01*
X174826358Y-114062478D01*
X174821579Y-114057424D01*
X174718571Y-113942158D01*
X174714665Y-113937567D01*
X174615759Y-113815428D01*
X174610996Y-113809147D01*
X174521452Y-113682947D01*
X174518604Y-113678754D01*
X174433081Y-113547061D01*
X174428568Y-113539538D01*
X174353521Y-113403748D01*
X174351565Y-113400064D01*
X174295609Y-113290248D01*
X174280497Y-113260589D01*
X174276430Y-113251768D01*
X174216714Y-113107599D01*
X174215562Y-113104710D01*
X174159729Y-112959260D01*
X174156347Y-112949174D01*
X174112725Y-112797761D01*
X174112134Y-112795635D01*
X174072202Y-112646606D01*
X174069738Y-112635324D01*
X174042709Y-112476245D01*
X174042491Y-112474911D01*
X174018955Y-112326309D01*
X174017628Y-112313908D01*
X174007485Y-112133285D01*
X174007476Y-112133114D01*
X174000669Y-112003243D01*
X174000584Y-111999999D01*
X175644340Y-111999999D01*
X175664936Y-112235407D01*
X175722436Y-112449999D01*
X175726097Y-112463663D01*
X175825965Y-112677829D01*
X175961505Y-112871401D01*
X176128599Y-113038495D01*
X176322171Y-113174035D01*
X176536337Y-113273903D01*
X176712410Y-113321081D01*
X176764592Y-113335063D01*
X176941032Y-113350500D01*
X176941034Y-113350500D01*
X177058966Y-113350500D01*
X177058968Y-113350500D01*
X177123347Y-113344867D01*
X188369500Y-113344867D01*
X188372414Y-113369988D01*
X188372414Y-113369990D01*
X188372415Y-113369991D01*
X188387320Y-113403748D01*
X188417795Y-113472767D01*
X188497232Y-113552204D01*
X188497233Y-113552204D01*
X188497235Y-113552206D01*
X188600009Y-113597585D01*
X188625135Y-113600500D01*
X190414864Y-113600499D01*
X190414867Y-113600499D01*
X190427427Y-113599042D01*
X190439991Y-113597585D01*
X190542765Y-113552206D01*
X190622206Y-113472765D01*
X190667585Y-113369991D01*
X190670500Y-113344865D01*
X190670499Y-112606046D01*
X190686170Y-112545710D01*
X190729221Y-112500622D01*
X190788772Y-112482181D01*
X190849770Y-112495049D01*
X190896799Y-112535972D01*
X190917970Y-112594607D01*
X190924243Y-112662310D01*
X190982595Y-112867390D01*
X191077631Y-113058252D01*
X191206126Y-113228405D01*
X191206128Y-113228407D01*
X191363698Y-113372052D01*
X191544981Y-113484298D01*
X191743802Y-113561321D01*
X191953390Y-113600500D01*
X192166608Y-113600500D01*
X192166610Y-113600500D01*
X192376198Y-113561321D01*
X192575019Y-113484298D01*
X192756302Y-113372052D01*
X192913872Y-113228407D01*
X193042366Y-113058255D01*
X193042366Y-113058253D01*
X193042368Y-113058252D01*
X193109323Y-112923786D01*
X193137405Y-112867389D01*
X193195756Y-112662310D01*
X193206529Y-112546047D01*
X193226633Y-112488996D01*
X193269410Y-112449999D01*
X193390589Y-112449999D01*
X193433367Y-112488996D01*
X193453471Y-112546048D01*
X193464243Y-112662310D01*
X193522595Y-112867390D01*
X193617631Y-113058252D01*
X193746126Y-113228405D01*
X193746128Y-113228407D01*
X193903698Y-113372052D01*
X194084981Y-113484298D01*
X194283802Y-113561321D01*
X194493390Y-113600500D01*
X194706608Y-113600500D01*
X194706610Y-113600500D01*
X194916198Y-113561321D01*
X195115019Y-113484298D01*
X195296302Y-113372052D01*
X195453872Y-113228407D01*
X195582366Y-113058255D01*
X195649324Y-112923783D01*
X195695722Y-112873213D01*
X195761913Y-112855066D01*
X195827617Y-112874905D01*
X195872705Y-112926651D01*
X195966399Y-113127576D01*
X196101893Y-113321081D01*
X196268918Y-113488106D01*
X196462423Y-113623600D01*
X196676507Y-113723430D01*
X196889999Y-113780635D01*
X196890000Y-113780636D01*
X196890000Y-112700000D01*
X197390000Y-112700000D01*
X197390000Y-113780635D01*
X197603492Y-113723430D01*
X197817576Y-113623600D01*
X198011081Y-113488106D01*
X198178106Y-113321081D01*
X198313600Y-113127576D01*
X198413430Y-112913492D01*
X198470636Y-112700000D01*
X197390000Y-112700000D01*
X196890000Y-112700000D01*
X196890000Y-111119364D01*
X197390000Y-111119364D01*
X197390000Y-112200000D01*
X198470636Y-112200000D01*
X198470635Y-112199999D01*
X198417045Y-111999999D01*
X212644340Y-111999999D01*
X212664936Y-112235407D01*
X212722436Y-112449999D01*
X212726097Y-112463663D01*
X212825965Y-112677829D01*
X212961505Y-112871401D01*
X213128599Y-113038495D01*
X213322171Y-113174035D01*
X213536337Y-113273903D01*
X213712410Y-113321081D01*
X213764592Y-113335063D01*
X213941032Y-113350500D01*
X213941034Y-113350500D01*
X214058966Y-113350500D01*
X214058968Y-113350500D01*
X214176594Y-113340208D01*
X214235408Y-113335063D01*
X214463663Y-113273903D01*
X214677829Y-113174035D01*
X214871401Y-113038495D01*
X215038495Y-112871401D01*
X215174035Y-112677830D01*
X215273903Y-112463663D01*
X215335063Y-112235408D01*
X215355659Y-112000000D01*
X215354478Y-111986507D01*
X215335063Y-111764592D01*
X215273903Y-111536337D01*
X215174035Y-111322171D01*
X215038495Y-111128599D01*
X214871401Y-110961505D01*
X214677829Y-110825965D01*
X214463663Y-110726097D01*
X214463662Y-110726096D01*
X214235407Y-110664936D01*
X214058968Y-110649500D01*
X214058966Y-110649500D01*
X213941034Y-110649500D01*
X213941032Y-110649500D01*
X213764592Y-110664936D01*
X213536336Y-110726097D01*
X213322170Y-110825965D01*
X213128598Y-110961505D01*
X212961508Y-111128595D01*
X212961505Y-111128598D01*
X212961505Y-111128599D01*
X212839799Y-111302414D01*
X212825964Y-111322172D01*
X212726097Y-111536337D01*
X212664936Y-111764592D01*
X212644340Y-111999999D01*
X198417045Y-111999999D01*
X198413430Y-111986507D01*
X198313599Y-111772421D01*
X198178109Y-111578921D01*
X198011081Y-111411893D01*
X197817576Y-111276399D01*
X197603492Y-111176569D01*
X197390000Y-111119364D01*
X196890000Y-111119364D01*
X196889999Y-111119364D01*
X196676507Y-111176569D01*
X196462421Y-111276400D01*
X196268921Y-111411890D01*
X196101890Y-111578921D01*
X195966401Y-111772419D01*
X195872705Y-111973349D01*
X195827617Y-112025094D01*
X195761913Y-112044933D01*
X195695722Y-112026786D01*
X195649324Y-111976216D01*
X195582366Y-111841745D01*
X195582365Y-111841744D01*
X195582365Y-111841743D01*
X195453873Y-111671594D01*
X195296301Y-111527947D01*
X195133645Y-111427235D01*
X195115019Y-111415702D01*
X195115017Y-111415701D01*
X194916198Y-111338679D01*
X194706610Y-111299500D01*
X194493390Y-111299500D01*
X194372117Y-111322170D01*
X194283801Y-111338679D01*
X194084982Y-111415701D01*
X193903698Y-111527947D01*
X193746126Y-111671594D01*
X193617631Y-111841747D01*
X193522595Y-112032609D01*
X193464243Y-112237689D01*
X193453471Y-112353951D01*
X193433367Y-112411003D01*
X193390589Y-112449999D01*
X193269410Y-112449999D01*
X193226633Y-112411003D01*
X193206529Y-112353951D01*
X193195756Y-112237689D01*
X193137404Y-112032609D01*
X193042368Y-111841747D01*
X192913873Y-111671594D01*
X192756301Y-111527947D01*
X192593645Y-111427235D01*
X192575019Y-111415702D01*
X192575017Y-111415701D01*
X192376198Y-111338679D01*
X192166610Y-111299500D01*
X191953390Y-111299500D01*
X191832117Y-111322170D01*
X191743801Y-111338679D01*
X191544982Y-111415701D01*
X191363698Y-111527947D01*
X191206126Y-111671594D01*
X191077631Y-111841747D01*
X190982595Y-112032609D01*
X190924243Y-112237689D01*
X190917970Y-112305393D01*
X190896799Y-112364029D01*
X190849770Y-112404952D01*
X190788772Y-112417820D01*
X190729221Y-112399379D01*
X190686170Y-112354291D01*
X190670499Y-112293952D01*
X190670499Y-111555133D01*
X190667585Y-111530011D01*
X190667585Y-111530009D01*
X190622206Y-111427235D01*
X190622204Y-111427233D01*
X190622204Y-111427232D01*
X190542767Y-111347795D01*
X190484734Y-111322171D01*
X190439991Y-111302415D01*
X190414865Y-111299500D01*
X190414863Y-111299500D01*
X188625132Y-111299500D01*
X188600011Y-111302414D01*
X188497232Y-111347795D01*
X188417795Y-111427232D01*
X188372415Y-111530009D01*
X188369500Y-111555136D01*
X188369500Y-113344867D01*
X177123347Y-113344867D01*
X177176594Y-113340208D01*
X177235408Y-113335063D01*
X177463663Y-113273903D01*
X177677829Y-113174035D01*
X177871401Y-113038495D01*
X178038495Y-112871401D01*
X178174035Y-112677830D01*
X178273903Y-112463663D01*
X178335063Y-112235408D01*
X178355659Y-112000000D01*
X178354478Y-111986507D01*
X178335063Y-111764592D01*
X178273903Y-111536337D01*
X178174035Y-111322171D01*
X178038495Y-111128599D01*
X177871401Y-110961505D01*
X177677829Y-110825965D01*
X177463663Y-110726097D01*
X177463662Y-110726096D01*
X177235407Y-110664936D01*
X177058968Y-110649500D01*
X177058966Y-110649500D01*
X176941034Y-110649500D01*
X176941032Y-110649500D01*
X176764592Y-110664936D01*
X176536336Y-110726097D01*
X176322170Y-110825965D01*
X176128598Y-110961505D01*
X175961508Y-111128595D01*
X175961505Y-111128598D01*
X175961505Y-111128599D01*
X175839799Y-111302414D01*
X175825964Y-111322172D01*
X175726097Y-111536337D01*
X175664936Y-111764592D01*
X175644340Y-111999999D01*
X174000584Y-111999999D01*
X174000500Y-111996755D01*
X174000500Y-109600000D01*
X190644721Y-109600000D01*
X190663763Y-109756818D01*
X190719780Y-109904523D01*
X190809515Y-110034528D01*
X190809516Y-110034529D01*
X190809517Y-110034530D01*
X190927760Y-110139283D01*
X191067635Y-110212696D01*
X191221015Y-110250500D01*
X191378985Y-110250500D01*
X191532365Y-110212696D01*
X191623805Y-110164703D01*
X191681431Y-110150500D01*
X192668569Y-110150500D01*
X192726194Y-110164703D01*
X192817635Y-110212696D01*
X192971015Y-110250500D01*
X193128985Y-110250500D01*
X193282365Y-110212696D01*
X193422240Y-110139283D01*
X193540483Y-110034530D01*
X193630220Y-109904523D01*
X193686237Y-109756818D01*
X193705278Y-109600000D01*
X193686237Y-109443182D01*
X193630220Y-109295477D01*
X193540483Y-109165470D01*
X193422240Y-109060717D01*
X193373805Y-109035296D01*
X193282364Y-108987303D01*
X193128985Y-108949500D01*
X192971015Y-108949500D01*
X192817636Y-108987303D01*
X192771763Y-109011379D01*
X192726194Y-109035296D01*
X192668569Y-109049500D01*
X191681431Y-109049500D01*
X191623805Y-109035296D01*
X191532365Y-108987304D01*
X191532364Y-108987303D01*
X191532363Y-108987303D01*
X191378985Y-108949500D01*
X191221015Y-108949500D01*
X191067635Y-108987303D01*
X190927761Y-109060716D01*
X190809515Y-109165471D01*
X190719780Y-109295476D01*
X190663763Y-109443181D01*
X190644721Y-109600000D01*
X174000500Y-109600000D01*
X174000500Y-107850000D01*
X193844721Y-107850000D01*
X193863763Y-108006818D01*
X193919780Y-108154523D01*
X194009515Y-108284528D01*
X194009516Y-108284529D01*
X194009517Y-108284530D01*
X194127760Y-108389283D01*
X194267635Y-108462696D01*
X194421015Y-108500500D01*
X194578985Y-108500500D01*
X194732365Y-108462696D01*
X194823805Y-108414703D01*
X194881431Y-108400500D01*
X195768569Y-108400500D01*
X195826194Y-108414703D01*
X195917635Y-108462696D01*
X196071015Y-108500500D01*
X196228985Y-108500500D01*
X196382365Y-108462696D01*
X196522240Y-108389283D01*
X196640483Y-108284530D01*
X196730220Y-108154523D01*
X196786237Y-108006818D01*
X196805278Y-107850000D01*
X196786237Y-107693182D01*
X196730220Y-107545477D01*
X196640483Y-107415470D01*
X196522240Y-107310717D01*
X196473805Y-107285296D01*
X196382364Y-107237303D01*
X196228985Y-107199500D01*
X196071015Y-107199500D01*
X195917636Y-107237303D01*
X195871763Y-107261379D01*
X195826194Y-107285296D01*
X195768569Y-107299500D01*
X194881431Y-107299500D01*
X194823805Y-107285296D01*
X194732365Y-107237304D01*
X194732364Y-107237303D01*
X194732363Y-107237303D01*
X194578985Y-107199500D01*
X194421015Y-107199500D01*
X194267635Y-107237303D01*
X194127761Y-107310716D01*
X194009515Y-107415471D01*
X193919780Y-107545476D01*
X193863763Y-107693181D01*
X193844721Y-107850000D01*
X174000500Y-107850000D01*
X174000500Y-101825000D01*
X209397677Y-101825000D01*
X209400885Y-101848689D01*
X209469026Y-102058401D01*
X209573517Y-102252576D01*
X209710998Y-102424973D01*
X209877053Y-102570051D01*
X210066344Y-102683148D01*
X210272787Y-102760627D01*
X210489747Y-102800000D01*
X210625000Y-102800000D01*
X210625000Y-101825000D01*
X211125000Y-101825000D01*
X211125000Y-102800000D01*
X211205007Y-102800000D01*
X211369620Y-102785183D01*
X211582173Y-102726523D01*
X211780838Y-102630852D01*
X211959233Y-102501238D01*
X212111614Y-102341862D01*
X212233088Y-102157835D01*
X212311237Y-101975000D01*
X213304468Y-101975000D01*
X213329504Y-102078201D01*
X213414786Y-102264944D01*
X213533872Y-102432175D01*
X213682459Y-102573853D01*
X213855162Y-102684842D01*
X214045762Y-102761147D01*
X214247350Y-102800000D01*
X214425000Y-102800000D01*
X214425000Y-101975000D01*
X214925000Y-101975000D01*
X214925000Y-102800000D01*
X215051206Y-102800000D01*
X215204373Y-102785374D01*
X215401353Y-102727535D01*
X215583836Y-102633459D01*
X215745207Y-102506554D01*
X215879653Y-102351396D01*
X215982301Y-102173604D01*
X216049450Y-101979592D01*
X216050111Y-101975000D01*
X214925000Y-101975000D01*
X214425000Y-101975000D01*
X213304468Y-101975000D01*
X212311237Y-101975000D01*
X212319753Y-101955076D01*
X212349442Y-101825000D01*
X211125000Y-101825000D01*
X210625000Y-101825000D01*
X209397677Y-101825000D01*
X174000500Y-101825000D01*
X174000500Y-101474999D01*
X213299888Y-101474999D01*
X213299889Y-101475000D01*
X214425000Y-101475000D01*
X214425000Y-100650000D01*
X214925000Y-100650000D01*
X214925000Y-101475000D01*
X216045532Y-101475000D01*
X216045531Y-101474999D01*
X216020495Y-101371798D01*
X215935213Y-101185055D01*
X215816127Y-101017824D01*
X215667540Y-100876146D01*
X215494837Y-100765157D01*
X215304237Y-100688852D01*
X215102650Y-100650000D01*
X214925000Y-100650000D01*
X214425000Y-100650000D01*
X214298794Y-100650000D01*
X214145626Y-100664625D01*
X213948646Y-100722464D01*
X213766163Y-100816540D01*
X213604792Y-100943445D01*
X213470346Y-101098603D01*
X213367698Y-101276395D01*
X213300549Y-101470407D01*
X213299888Y-101474999D01*
X174000500Y-101474999D01*
X174000500Y-101324999D01*
X209400557Y-101324999D01*
X209400558Y-101325000D01*
X210625000Y-101325000D01*
X211125000Y-101325000D01*
X212352322Y-101325000D01*
X212352322Y-101324999D01*
X212349113Y-101301309D01*
X212277525Y-101080983D01*
X212279339Y-101080393D01*
X212267991Y-101031956D01*
X212286896Y-100970177D01*
X212316447Y-100942826D01*
X212314581Y-100940720D01*
X212352185Y-100907405D01*
X212363962Y-100898176D01*
X212392929Y-100878183D01*
X212416264Y-100851841D01*
X212426841Y-100841264D01*
X212453183Y-100817929D01*
X212473176Y-100788962D01*
X212482405Y-100777185D01*
X212505732Y-100750854D01*
X212505731Y-100750854D01*
X212505734Y-100750852D01*
X212522084Y-100719697D01*
X212529823Y-100706895D01*
X212549818Y-100677930D01*
X212562297Y-100645023D01*
X212568436Y-100631382D01*
X212584790Y-100600225D01*
X212593212Y-100566050D01*
X212597664Y-100551767D01*
X212610140Y-100518872D01*
X212614381Y-100483936D01*
X212617074Y-100469238D01*
X212625500Y-100435056D01*
X212625500Y-100399874D01*
X212626404Y-100384927D01*
X212630645Y-100349999D01*
X212626404Y-100315073D01*
X212625500Y-100300126D01*
X212625500Y-100264944D01*
X212625499Y-100264943D01*
X212617078Y-100230775D01*
X212614380Y-100216053D01*
X212610140Y-100181128D01*
X212597665Y-100148233D01*
X212593210Y-100133937D01*
X212584790Y-100099776D01*
X212584790Y-100099775D01*
X212568433Y-100068610D01*
X212562297Y-100054975D01*
X212549818Y-100022070D01*
X212529827Y-99993108D01*
X212522082Y-99980297D01*
X212505734Y-99949148D01*
X212482394Y-99922802D01*
X212473178Y-99911038D01*
X212453183Y-99882071D01*
X212453181Y-99882068D01*
X212426847Y-99858739D01*
X212416260Y-99848153D01*
X212392929Y-99821817D01*
X212392925Y-99821814D01*
X212363965Y-99801823D01*
X212352180Y-99792590D01*
X212325851Y-99769265D01*
X212294705Y-99752918D01*
X212281891Y-99745172D01*
X212252929Y-99725181D01*
X212220026Y-99712702D01*
X212206377Y-99706559D01*
X212175227Y-99690211D01*
X212175226Y-99690210D01*
X212175225Y-99690210D01*
X212141048Y-99681785D01*
X212126776Y-99677338D01*
X212093872Y-99664860D01*
X212093867Y-99664858D01*
X212058942Y-99660617D01*
X212044220Y-99657919D01*
X212010059Y-99649500D01*
X212010056Y-99649500D01*
X211839944Y-99649500D01*
X211805779Y-99657920D01*
X211791057Y-99660617D01*
X211756130Y-99664858D01*
X211723227Y-99677336D01*
X211708940Y-99681788D01*
X211674773Y-99690210D01*
X211643613Y-99706563D01*
X211629966Y-99712705D01*
X211597068Y-99725182D01*
X211568108Y-99745171D01*
X211555301Y-99752913D01*
X211524148Y-99769264D01*
X211497807Y-99792599D01*
X211486028Y-99801827D01*
X211457069Y-99821817D01*
X211433737Y-99848153D01*
X211423153Y-99858737D01*
X211396817Y-99882069D01*
X211376827Y-99911028D01*
X211367599Y-99922807D01*
X211344264Y-99949148D01*
X211327913Y-99980301D01*
X211320171Y-99993108D01*
X211300182Y-100022068D01*
X211287705Y-100054966D01*
X211281563Y-100068613D01*
X211265210Y-100099773D01*
X211256788Y-100133940D01*
X211252336Y-100148227D01*
X211239858Y-100181130D01*
X211235617Y-100216057D01*
X211232921Y-100230775D01*
X211230622Y-100240101D01*
X211226785Y-100255671D01*
X211202442Y-100304419D01*
X211159548Y-100338027D01*
X211130410Y-100344589D01*
X211125000Y-100350000D01*
X211125000Y-101325000D01*
X210625000Y-101325000D01*
X210625000Y-100350000D01*
X210544993Y-100350000D01*
X210380379Y-100364816D01*
X210167826Y-100423476D01*
X209969161Y-100519147D01*
X209790766Y-100648761D01*
X209638385Y-100808137D01*
X209516911Y-100992164D01*
X209430246Y-101194923D01*
X209400557Y-101324999D01*
X174000500Y-101324999D01*
X174000500Y-97085055D01*
X175549500Y-97085055D01*
X175590209Y-97250224D01*
X175590210Y-97250225D01*
X175669266Y-97400852D01*
X175782071Y-97528183D01*
X175922070Y-97624818D01*
X176081128Y-97685140D01*
X176207628Y-97700500D01*
X176292371Y-97700500D01*
X176292372Y-97700500D01*
X176418872Y-97685140D01*
X176577930Y-97624818D01*
X176717929Y-97528183D01*
X176830734Y-97400852D01*
X176909790Y-97250225D01*
X176950500Y-97085056D01*
X176950500Y-96914944D01*
X176909790Y-96749775D01*
X176830734Y-96599148D01*
X176717929Y-96471817D01*
X176717928Y-96471816D01*
X176717927Y-96471815D01*
X176577930Y-96375182D01*
X176418872Y-96314860D01*
X176292372Y-96299500D01*
X176207628Y-96299500D01*
X176144377Y-96307180D01*
X176081127Y-96314860D01*
X175922069Y-96375182D01*
X175782072Y-96471815D01*
X175669265Y-96599149D01*
X175590209Y-96749775D01*
X175549500Y-96914945D01*
X175549500Y-97085055D01*
X174000500Y-97085055D01*
X174000500Y-94085055D01*
X175549500Y-94085055D01*
X175590209Y-94250224D01*
X175590210Y-94250225D01*
X175669266Y-94400852D01*
X175782071Y-94528183D01*
X175922070Y-94624818D01*
X176081128Y-94685140D01*
X176207628Y-94700500D01*
X176292371Y-94700500D01*
X176292372Y-94700500D01*
X176418872Y-94685140D01*
X176577930Y-94624818D01*
X176717929Y-94528183D01*
X176830734Y-94400852D01*
X176844302Y-94375000D01*
X209397677Y-94375000D01*
X209400885Y-94398689D01*
X209469026Y-94608401D01*
X209573517Y-94802576D01*
X209710998Y-94974973D01*
X209877053Y-95120051D01*
X210066344Y-95233148D01*
X210272787Y-95310627D01*
X210489747Y-95350000D01*
X210625000Y-95350000D01*
X210625000Y-94375000D01*
X211125000Y-94375000D01*
X211125000Y-95350000D01*
X211130410Y-95355410D01*
X211159548Y-95361973D01*
X211202442Y-95395580D01*
X211226786Y-95444331D01*
X211232920Y-95469223D01*
X211235617Y-95483942D01*
X211239858Y-95518867D01*
X211252337Y-95551772D01*
X211256785Y-95566048D01*
X211265210Y-95600225D01*
X211265210Y-95600226D01*
X211265211Y-95600227D01*
X211281559Y-95631377D01*
X211287702Y-95645026D01*
X211300181Y-95677929D01*
X211320172Y-95706891D01*
X211327918Y-95719705D01*
X211344265Y-95750851D01*
X211367590Y-95777180D01*
X211376823Y-95788965D01*
X211396814Y-95817925D01*
X211396817Y-95817929D01*
X211423156Y-95841263D01*
X211433739Y-95851847D01*
X211457068Y-95878181D01*
X211457071Y-95878183D01*
X211486038Y-95898178D01*
X211497802Y-95907394D01*
X211524148Y-95930734D01*
X211555293Y-95947080D01*
X211555297Y-95947082D01*
X211568113Y-95954830D01*
X211597068Y-95974817D01*
X211597069Y-95974817D01*
X211597070Y-95974818D01*
X211629975Y-95987297D01*
X211643610Y-95993433D01*
X211674775Y-96009790D01*
X211703180Y-96016791D01*
X211708937Y-96018210D01*
X211723233Y-96022665D01*
X211742439Y-96029948D01*
X211756128Y-96035140D01*
X211791055Y-96039380D01*
X211805779Y-96042078D01*
X211839944Y-96050500D01*
X211882628Y-96050500D01*
X212010053Y-96050500D01*
X212010056Y-96050500D01*
X212044238Y-96042074D01*
X212058936Y-96039381D01*
X212093872Y-96035140D01*
X212126772Y-96022662D01*
X212141050Y-96018212D01*
X212175225Y-96009790D01*
X212206382Y-95993436D01*
X212220023Y-95987297D01*
X212252930Y-95974818D01*
X212281895Y-95954823D01*
X212294702Y-95947082D01*
X212325852Y-95930734D01*
X212352185Y-95907405D01*
X212363962Y-95898176D01*
X212392929Y-95878183D01*
X212416264Y-95851841D01*
X212426841Y-95841264D01*
X212453183Y-95817929D01*
X212473176Y-95788962D01*
X212482405Y-95777185D01*
X212505732Y-95750854D01*
X212505731Y-95750854D01*
X212505734Y-95750852D01*
X212522084Y-95719697D01*
X212529823Y-95706895D01*
X212549818Y-95677930D01*
X212562297Y-95645023D01*
X212568436Y-95631382D01*
X212584790Y-95600225D01*
X212593212Y-95566050D01*
X212597664Y-95551767D01*
X212610140Y-95518872D01*
X212614381Y-95483936D01*
X212617074Y-95469238D01*
X212625500Y-95435056D01*
X212625500Y-95399874D01*
X212626404Y-95384927D01*
X212630645Y-95349999D01*
X212626404Y-95315073D01*
X212625500Y-95300126D01*
X212625500Y-95264944D01*
X212625499Y-95264943D01*
X212617078Y-95230779D01*
X212614380Y-95216053D01*
X212610140Y-95181128D01*
X212597665Y-95148233D01*
X212593210Y-95133937D01*
X212584790Y-95099776D01*
X212584790Y-95099775D01*
X212568433Y-95068610D01*
X212562297Y-95054975D01*
X212549818Y-95022070D01*
X212529829Y-94993112D01*
X212522082Y-94980297D01*
X212519288Y-94974973D01*
X212505734Y-94949148D01*
X212482394Y-94922802D01*
X212473178Y-94911038D01*
X212453183Y-94882071D01*
X212453181Y-94882068D01*
X212426847Y-94858739D01*
X212416263Y-94848156D01*
X212392929Y-94821817D01*
X212392925Y-94821814D01*
X212363965Y-94801823D01*
X212352180Y-94792590D01*
X212314582Y-94759281D01*
X212315423Y-94758331D01*
X212284657Y-94730691D01*
X212264210Y-94673209D01*
X212273651Y-94612934D01*
X212319753Y-94505075D01*
X212349442Y-94375000D01*
X211125000Y-94375000D01*
X210625000Y-94375000D01*
X209397677Y-94375000D01*
X176844302Y-94375000D01*
X176909790Y-94250225D01*
X176916007Y-94225000D01*
X213304468Y-94225000D01*
X213329504Y-94328201D01*
X213414786Y-94514944D01*
X213533872Y-94682175D01*
X213682459Y-94823853D01*
X213855162Y-94934842D01*
X214045762Y-95011147D01*
X214247350Y-95050000D01*
X214425000Y-95050000D01*
X214425000Y-94225000D01*
X214925000Y-94225000D01*
X214925000Y-95050000D01*
X215051206Y-95050000D01*
X215204373Y-95035374D01*
X215401353Y-94977535D01*
X215583836Y-94883459D01*
X215745207Y-94756554D01*
X215879653Y-94601396D01*
X215982301Y-94423604D01*
X216049450Y-94229592D01*
X216050111Y-94225000D01*
X214925000Y-94225000D01*
X214425000Y-94225000D01*
X213304468Y-94225000D01*
X176916007Y-94225000D01*
X176950500Y-94085056D01*
X176950500Y-93914944D01*
X176940655Y-93874999D01*
X209400557Y-93874999D01*
X209400558Y-93875000D01*
X210625000Y-93875000D01*
X210625000Y-92900000D01*
X211125000Y-92900000D01*
X211125000Y-93875000D01*
X212352322Y-93875000D01*
X212352322Y-93874999D01*
X212349114Y-93851310D01*
X212308072Y-93724999D01*
X213299888Y-93724999D01*
X213299889Y-93725000D01*
X214425000Y-93725000D01*
X214425000Y-92900000D01*
X214925000Y-92900000D01*
X214925000Y-93725000D01*
X216045532Y-93725000D01*
X216045531Y-93724999D01*
X216020495Y-93621798D01*
X215935213Y-93435055D01*
X215816127Y-93267824D01*
X215667540Y-93126146D01*
X215494837Y-93015157D01*
X215304237Y-92938852D01*
X215102650Y-92900000D01*
X214925000Y-92900000D01*
X214425000Y-92900000D01*
X214298794Y-92900000D01*
X214145626Y-92914625D01*
X213948646Y-92972464D01*
X213766163Y-93066540D01*
X213604792Y-93193445D01*
X213470346Y-93348603D01*
X213367698Y-93526395D01*
X213300549Y-93720407D01*
X213299888Y-93724999D01*
X212308072Y-93724999D01*
X212280973Y-93641598D01*
X212176482Y-93447423D01*
X212039001Y-93275026D01*
X211872946Y-93129948D01*
X211683655Y-93016851D01*
X211477212Y-92939372D01*
X211260253Y-92900000D01*
X211125000Y-92900000D01*
X210625000Y-92900000D01*
X210544993Y-92900000D01*
X210380379Y-92914816D01*
X210167826Y-92973476D01*
X209969161Y-93069147D01*
X209790766Y-93198761D01*
X209638385Y-93358137D01*
X209516911Y-93542164D01*
X209430246Y-93744923D01*
X209400557Y-93874999D01*
X176940655Y-93874999D01*
X176909790Y-93749775D01*
X176830734Y-93599148D01*
X176717929Y-93471817D01*
X176717928Y-93471816D01*
X176717927Y-93471815D01*
X176577930Y-93375182D01*
X176418872Y-93314860D01*
X176292372Y-93299500D01*
X176207628Y-93299500D01*
X176144377Y-93307180D01*
X176081127Y-93314860D01*
X175922069Y-93375182D01*
X175782072Y-93471815D01*
X175669265Y-93599149D01*
X175590209Y-93749775D01*
X175549500Y-93914945D01*
X175549500Y-94085055D01*
X174000500Y-94085055D01*
X174000500Y-87003245D01*
X174000585Y-86999999D01*
X175644340Y-86999999D01*
X175664936Y-87235407D01*
X175726097Y-87463662D01*
X175726097Y-87463663D01*
X175825965Y-87677829D01*
X175961505Y-87871401D01*
X176128599Y-88038495D01*
X176322171Y-88174035D01*
X176536337Y-88273903D01*
X176764591Y-88335062D01*
X176764592Y-88335063D01*
X176941032Y-88350500D01*
X176941034Y-88350500D01*
X177058966Y-88350500D01*
X177058968Y-88350500D01*
X177176593Y-88340208D01*
X177235408Y-88335063D01*
X177463663Y-88273903D01*
X177677829Y-88174035D01*
X177871401Y-88038495D01*
X178038495Y-87871401D01*
X178174035Y-87677830D01*
X178273903Y-87463663D01*
X178335063Y-87235408D01*
X178355659Y-87000000D01*
X178353365Y-86973785D01*
X178335063Y-86764592D01*
X178331153Y-86750000D01*
X183629364Y-86750000D01*
X183686569Y-86963492D01*
X183786399Y-87177576D01*
X183921893Y-87371081D01*
X184088918Y-87538106D01*
X184282423Y-87673600D01*
X184496507Y-87773430D01*
X184709999Y-87830635D01*
X184710000Y-87830636D01*
X184710000Y-86750000D01*
X183629364Y-86750000D01*
X178331153Y-86750000D01*
X178321054Y-86712310D01*
X178273903Y-86536337D01*
X178174035Y-86322171D01*
X178123501Y-86250000D01*
X183629364Y-86250000D01*
X184710000Y-86250000D01*
X184710000Y-85169364D01*
X185210000Y-85169364D01*
X185210000Y-87830635D01*
X185423492Y-87773430D01*
X185637576Y-87673600D01*
X185831081Y-87538106D01*
X185998106Y-87371081D01*
X186133600Y-87177576D01*
X186227294Y-86976651D01*
X186272381Y-86924905D01*
X186338085Y-86905066D01*
X186404276Y-86923213D01*
X186450676Y-86973784D01*
X186463730Y-87000000D01*
X186517634Y-87108256D01*
X186613656Y-87235408D01*
X186646128Y-87278407D01*
X186803698Y-87422052D01*
X186984981Y-87534298D01*
X187183802Y-87611321D01*
X187393390Y-87650500D01*
X187606608Y-87650500D01*
X187606610Y-87650500D01*
X187816198Y-87611321D01*
X188015019Y-87534298D01*
X188196302Y-87422052D01*
X188353872Y-87278407D01*
X188482366Y-87108255D01*
X188482366Y-87108253D01*
X188482368Y-87108252D01*
X188536270Y-87000000D01*
X188577405Y-86917389D01*
X188635756Y-86712310D01*
X188646529Y-86596047D01*
X188666633Y-86538996D01*
X188709410Y-86499999D01*
X188830589Y-86499999D01*
X188873367Y-86538996D01*
X188893471Y-86596048D01*
X188904243Y-86712310D01*
X188962595Y-86917390D01*
X189057631Y-87108252D01*
X189153656Y-87235408D01*
X189186128Y-87278407D01*
X189343698Y-87422052D01*
X189524981Y-87534298D01*
X189723802Y-87611321D01*
X189933390Y-87650500D01*
X190146608Y-87650500D01*
X190146610Y-87650500D01*
X190356198Y-87611321D01*
X190555019Y-87534298D01*
X190736302Y-87422052D01*
X190893872Y-87278407D01*
X191022366Y-87108255D01*
X191022366Y-87108253D01*
X191022368Y-87108252D01*
X191076270Y-87000000D01*
X191117405Y-86917389D01*
X191175756Y-86712310D01*
X191182029Y-86644605D01*
X191203200Y-86585971D01*
X191250228Y-86545047D01*
X191311226Y-86532179D01*
X191370777Y-86550620D01*
X191413829Y-86595708D01*
X191429500Y-86656047D01*
X191429500Y-87394867D01*
X191432414Y-87419988D01*
X191477795Y-87522767D01*
X191557232Y-87602204D01*
X191557233Y-87602204D01*
X191557235Y-87602206D01*
X191660009Y-87647585D01*
X191685135Y-87650500D01*
X193474864Y-87650499D01*
X193474867Y-87650499D01*
X193487427Y-87649042D01*
X193499991Y-87647585D01*
X193602765Y-87602206D01*
X193682206Y-87522765D01*
X193727585Y-87419991D01*
X193730500Y-87394865D01*
X193730499Y-86750000D01*
X197099364Y-86750000D01*
X197156569Y-86963492D01*
X197256399Y-87177576D01*
X197391893Y-87371081D01*
X197558918Y-87538106D01*
X197752423Y-87673600D01*
X197966507Y-87773430D01*
X198179999Y-87830635D01*
X198180000Y-87830636D01*
X198180000Y-86750000D01*
X197099364Y-86750000D01*
X193730499Y-86750000D01*
X193730499Y-86250000D01*
X197099364Y-86250000D01*
X198180000Y-86250000D01*
X198180000Y-85169364D01*
X198680000Y-85169364D01*
X198680000Y-87830635D01*
X198893492Y-87773430D01*
X199107576Y-87673600D01*
X199301081Y-87538106D01*
X199468106Y-87371081D01*
X199603600Y-87177576D01*
X199697294Y-86976651D01*
X199742381Y-86924905D01*
X199808085Y-86905066D01*
X199874276Y-86923213D01*
X199920676Y-86973784D01*
X199933730Y-87000000D01*
X199987634Y-87108256D01*
X200083656Y-87235408D01*
X200116128Y-87278407D01*
X200273698Y-87422052D01*
X200454981Y-87534298D01*
X200653802Y-87611321D01*
X200863390Y-87650500D01*
X201076608Y-87650500D01*
X201076610Y-87650500D01*
X201286198Y-87611321D01*
X201485019Y-87534298D01*
X201666302Y-87422052D01*
X201823872Y-87278407D01*
X201952366Y-87108255D01*
X201952366Y-87108253D01*
X201952368Y-87108252D01*
X202006270Y-87000000D01*
X202047405Y-86917389D01*
X202105756Y-86712310D01*
X202116529Y-86596047D01*
X202136633Y-86538996D01*
X202179410Y-86499999D01*
X202300589Y-86499999D01*
X202343367Y-86538996D01*
X202363471Y-86596048D01*
X202374243Y-86712310D01*
X202432595Y-86917390D01*
X202527631Y-87108252D01*
X202623656Y-87235408D01*
X202656128Y-87278407D01*
X202813698Y-87422052D01*
X202994981Y-87534298D01*
X203193802Y-87611321D01*
X203403390Y-87650500D01*
X203616608Y-87650500D01*
X203616610Y-87650500D01*
X203826198Y-87611321D01*
X204025019Y-87534298D01*
X204206302Y-87422052D01*
X204363872Y-87278407D01*
X204492366Y-87108255D01*
X204492366Y-87108253D01*
X204492368Y-87108252D01*
X204546270Y-87000000D01*
X204587405Y-86917389D01*
X204645756Y-86712310D01*
X204652029Y-86644605D01*
X204673200Y-86585971D01*
X204720228Y-86545047D01*
X204781226Y-86532179D01*
X204840777Y-86550620D01*
X204883829Y-86595708D01*
X204899500Y-86656047D01*
X204899500Y-87394867D01*
X204902414Y-87419988D01*
X204947795Y-87522767D01*
X205027232Y-87602204D01*
X205027233Y-87602204D01*
X205027235Y-87602206D01*
X205130009Y-87647585D01*
X205155135Y-87650500D01*
X206944864Y-87650499D01*
X206944867Y-87650499D01*
X206957427Y-87649042D01*
X206969991Y-87647585D01*
X207072765Y-87602206D01*
X207152206Y-87522765D01*
X207197585Y-87419991D01*
X207200500Y-87394865D01*
X207200500Y-86999999D01*
X212644340Y-86999999D01*
X212664936Y-87235407D01*
X212726097Y-87463662D01*
X212726097Y-87463663D01*
X212825965Y-87677829D01*
X212961505Y-87871401D01*
X213128599Y-88038495D01*
X213322171Y-88174035D01*
X213536337Y-88273903D01*
X213764591Y-88335062D01*
X213764592Y-88335063D01*
X213941032Y-88350500D01*
X213941034Y-88350500D01*
X214058966Y-88350500D01*
X214058968Y-88350500D01*
X214176593Y-88340208D01*
X214235408Y-88335063D01*
X214463663Y-88273903D01*
X214677829Y-88174035D01*
X214871401Y-88038495D01*
X215038495Y-87871401D01*
X215174035Y-87677830D01*
X215273903Y-87463663D01*
X215335063Y-87235408D01*
X215355659Y-87000000D01*
X215353365Y-86973785D01*
X215335063Y-86764592D01*
X215321054Y-86712310D01*
X215273903Y-86536337D01*
X215174035Y-86322171D01*
X215038495Y-86128599D01*
X214871401Y-85961505D01*
X214677829Y-85825965D01*
X214463663Y-85726097D01*
X214463662Y-85726096D01*
X214235407Y-85664936D01*
X214058968Y-85649500D01*
X214058966Y-85649500D01*
X213941034Y-85649500D01*
X213941032Y-85649500D01*
X213764592Y-85664936D01*
X213536336Y-85726097D01*
X213322170Y-85825965D01*
X213128598Y-85961505D01*
X212961508Y-86128595D01*
X212961505Y-86128598D01*
X212961505Y-86128599D01*
X212850109Y-86287690D01*
X212825964Y-86322172D01*
X212726097Y-86536337D01*
X212664936Y-86764592D01*
X212644340Y-86999999D01*
X207200500Y-86999999D01*
X207200499Y-85605136D01*
X207199468Y-85596250D01*
X207197585Y-85580011D01*
X207197585Y-85580009D01*
X207152206Y-85477235D01*
X207152204Y-85477233D01*
X207152204Y-85477232D01*
X207072767Y-85397795D01*
X207052121Y-85388679D01*
X206969991Y-85352415D01*
X206944865Y-85349500D01*
X206944863Y-85349500D01*
X205155132Y-85349500D01*
X205130011Y-85352414D01*
X205027232Y-85397795D01*
X204947795Y-85477232D01*
X204902415Y-85580009D01*
X204899500Y-85605136D01*
X204899500Y-86343950D01*
X204883829Y-86404289D01*
X204840777Y-86449377D01*
X204781226Y-86467818D01*
X204720228Y-86454950D01*
X204673200Y-86414026D01*
X204652029Y-86355390D01*
X204645756Y-86287689D01*
X204600490Y-86128599D01*
X204587405Y-86082611D01*
X204571571Y-86050811D01*
X204492368Y-85891747D01*
X204363873Y-85721594D01*
X204206301Y-85577947D01*
X204043645Y-85477235D01*
X204025019Y-85465702D01*
X204025017Y-85465701D01*
X203826198Y-85388679D01*
X203616610Y-85349500D01*
X203403390Y-85349500D01*
X203263664Y-85375619D01*
X203193801Y-85388679D01*
X202994982Y-85465701D01*
X202813698Y-85577947D01*
X202656126Y-85721594D01*
X202527631Y-85891747D01*
X202432595Y-86082609D01*
X202374243Y-86287689D01*
X202363471Y-86403951D01*
X202343367Y-86461003D01*
X202300589Y-86499999D01*
X202179410Y-86499999D01*
X202136633Y-86461003D01*
X202116529Y-86403951D01*
X202105756Y-86287689D01*
X202060490Y-86128599D01*
X202047405Y-86082611D01*
X202031571Y-86050811D01*
X201952368Y-85891747D01*
X201823873Y-85721594D01*
X201666301Y-85577947D01*
X201503645Y-85477235D01*
X201485019Y-85465702D01*
X201485017Y-85465701D01*
X201286198Y-85388679D01*
X201076610Y-85349500D01*
X200863390Y-85349500D01*
X200723664Y-85375619D01*
X200653801Y-85388679D01*
X200454982Y-85465701D01*
X200273698Y-85577947D01*
X200116126Y-85721594D01*
X199987631Y-85891747D01*
X199920676Y-86026214D01*
X199874276Y-86076786D01*
X199808085Y-86094933D01*
X199742382Y-86075094D01*
X199697294Y-86023348D01*
X199603599Y-85822421D01*
X199468109Y-85628921D01*
X199301081Y-85461893D01*
X199107576Y-85326399D01*
X198893492Y-85226569D01*
X198680000Y-85169364D01*
X198180000Y-85169364D01*
X198179999Y-85169364D01*
X197966507Y-85226569D01*
X197752421Y-85326400D01*
X197558921Y-85461890D01*
X197391890Y-85628921D01*
X197256400Y-85822421D01*
X197156569Y-86036507D01*
X197099364Y-86249999D01*
X197099364Y-86250000D01*
X193730499Y-86250000D01*
X193730499Y-85605136D01*
X193729468Y-85596250D01*
X193727585Y-85580011D01*
X193727585Y-85580009D01*
X193682206Y-85477235D01*
X193682204Y-85477233D01*
X193682204Y-85477232D01*
X193602767Y-85397795D01*
X193582121Y-85388679D01*
X193499991Y-85352415D01*
X193474865Y-85349500D01*
X193474863Y-85349500D01*
X191685132Y-85349500D01*
X191660011Y-85352414D01*
X191557232Y-85397795D01*
X191477795Y-85477232D01*
X191432415Y-85580009D01*
X191429500Y-85605136D01*
X191429500Y-86343950D01*
X191413829Y-86404289D01*
X191370777Y-86449377D01*
X191311226Y-86467818D01*
X191250228Y-86454950D01*
X191203200Y-86414026D01*
X191182029Y-86355390D01*
X191175756Y-86287689D01*
X191130490Y-86128599D01*
X191117405Y-86082611D01*
X191101571Y-86050811D01*
X191022368Y-85891747D01*
X190893873Y-85721594D01*
X190736301Y-85577947D01*
X190573645Y-85477235D01*
X190555019Y-85465702D01*
X190555017Y-85465701D01*
X190356198Y-85388679D01*
X190146610Y-85349500D01*
X189933390Y-85349500D01*
X189793664Y-85375619D01*
X189723801Y-85388679D01*
X189524982Y-85465701D01*
X189343698Y-85577947D01*
X189186126Y-85721594D01*
X189057631Y-85891747D01*
X188962595Y-86082609D01*
X188904243Y-86287689D01*
X188893471Y-86403951D01*
X188873367Y-86461003D01*
X188830589Y-86499999D01*
X188709410Y-86499999D01*
X188666633Y-86461003D01*
X188646529Y-86403951D01*
X188635756Y-86287689D01*
X188590490Y-86128599D01*
X188577405Y-86082611D01*
X188561571Y-86050811D01*
X188482368Y-85891747D01*
X188353873Y-85721594D01*
X188196301Y-85577947D01*
X188033645Y-85477235D01*
X188015019Y-85465702D01*
X188015017Y-85465701D01*
X187816198Y-85388679D01*
X187606610Y-85349500D01*
X187393390Y-85349500D01*
X187253664Y-85375619D01*
X187183801Y-85388679D01*
X186984982Y-85465701D01*
X186803698Y-85577947D01*
X186646126Y-85721594D01*
X186517631Y-85891747D01*
X186450676Y-86026214D01*
X186404276Y-86076786D01*
X186338085Y-86094933D01*
X186272382Y-86075094D01*
X186227294Y-86023348D01*
X186133599Y-85822421D01*
X185998109Y-85628921D01*
X185831081Y-85461893D01*
X185637576Y-85326399D01*
X185423492Y-85226569D01*
X185210000Y-85169364D01*
X184710000Y-85169364D01*
X184709999Y-85169364D01*
X184496507Y-85226569D01*
X184282421Y-85326400D01*
X184088921Y-85461890D01*
X183921890Y-85628921D01*
X183786400Y-85822421D01*
X183686569Y-86036507D01*
X183629364Y-86249999D01*
X183629364Y-86250000D01*
X178123501Y-86250000D01*
X178038495Y-86128599D01*
X177871401Y-85961505D01*
X177677829Y-85825965D01*
X177463663Y-85726097D01*
X177463662Y-85726096D01*
X177235407Y-85664936D01*
X177058968Y-85649500D01*
X177058966Y-85649500D01*
X176941034Y-85649500D01*
X176941032Y-85649500D01*
X176764592Y-85664936D01*
X176536336Y-85726097D01*
X176322170Y-85825965D01*
X176128598Y-85961505D01*
X175961508Y-86128595D01*
X175961505Y-86128598D01*
X175961505Y-86128599D01*
X175850109Y-86287690D01*
X175825964Y-86322172D01*
X175726097Y-86536337D01*
X175664936Y-86764592D01*
X175644340Y-86999999D01*
X174000585Y-86999999D01*
X174000670Y-86996756D01*
X174002413Y-86963492D01*
X174007501Y-86866421D01*
X174017628Y-86686087D01*
X174018954Y-86673694D01*
X174042513Y-86524947D01*
X174042700Y-86523809D01*
X174069739Y-86364666D01*
X174072199Y-86353402D01*
X174112150Y-86204305D01*
X174112709Y-86202293D01*
X174156351Y-86050811D01*
X174159724Y-86040753D01*
X174215583Y-85895233D01*
X174216692Y-85892452D01*
X174276439Y-85748212D01*
X174280488Y-85739429D01*
X174351569Y-85599925D01*
X174353521Y-85596250D01*
X174363637Y-85577947D01*
X174428588Y-85460426D01*
X174433065Y-85452962D01*
X174518633Y-85321199D01*
X174521434Y-85317077D01*
X174611010Y-85190832D01*
X174615733Y-85184603D01*
X174714702Y-85062386D01*
X174718532Y-85057885D01*
X174821613Y-84942537D01*
X174826323Y-84937556D01*
X174937556Y-84826323D01*
X174942537Y-84821613D01*
X175057885Y-84718532D01*
X175062386Y-84714702D01*
X175184603Y-84615733D01*
X175190832Y-84611010D01*
X175317077Y-84521434D01*
X175321199Y-84518633D01*
X175452962Y-84433065D01*
X175460426Y-84428588D01*
X175596255Y-84353517D01*
X175599934Y-84351565D01*
X175739429Y-84280488D01*
X175748212Y-84276439D01*
X175892452Y-84216692D01*
X175895233Y-84215583D01*
X176040753Y-84159724D01*
X176050811Y-84156351D01*
X176202293Y-84112709D01*
X176204305Y-84112150D01*
X176353402Y-84072199D01*
X176364666Y-84069739D01*
X176523809Y-84042700D01*
X176524947Y-84042513D01*
X176673694Y-84018954D01*
X176686087Y-84017628D01*
X176866554Y-84007493D01*
X176996756Y-84000669D01*
X177003245Y-84000500D01*
X213996755Y-84000500D01*
X214003243Y-84000669D01*
G37*
%TD.AperFunction*%
%TD*%
M02*
