%TF.GenerationSoftware,KiCad,Pcbnew,7.0.1*%
%TF.CreationDate,2023-03-26T23:28:06+01:00*%
%TF.ProjectId,STM32,53544d33-322e-46b6-9963-61645f706362,rev?*%
%TF.SameCoordinates,Original*%
%TF.FileFunction,Paste,Top*%
%TF.FilePolarity,Positive*%
%FSLAX46Y46*%
G04 Gerber Fmt 4.6, Leading zero omitted, Abs format (unit mm)*
G04 Created by KiCad (PCBNEW 7.0.1) date 2023-03-26 23:28:06*
%MOMM*%
%LPD*%
G01*
G04 APERTURE LIST*
G04 Aperture macros list*
%AMRoundRect*
0 Rectangle with rounded corners*
0 $1 Rounding radius*
0 $2 $3 $4 $5 $6 $7 $8 $9 X,Y pos of 4 corners*
0 Add a 4 corners polygon primitive as box body*
4,1,4,$2,$3,$4,$5,$6,$7,$8,$9,$2,$3,0*
0 Add four circle primitives for the rounded corners*
1,1,$1+$1,$2,$3*
1,1,$1+$1,$4,$5*
1,1,$1+$1,$6,$7*
1,1,$1+$1,$8,$9*
0 Add four rect primitives between the rounded corners*
20,1,$1+$1,$2,$3,$4,$5,0*
20,1,$1+$1,$4,$5,$6,$7,0*
20,1,$1+$1,$6,$7,$8,$9,0*
20,1,$1+$1,$8,$9,$2,$3,0*%
G04 Aperture macros list end*
%ADD10R,1.300000X0.450000*%
%ADD11RoundRect,0.140000X0.140000X0.170000X-0.140000X0.170000X-0.140000X-0.170000X0.140000X-0.170000X0*%
%ADD12R,0.800000X1.000000*%
%ADD13R,1.500000X0.700000*%
%ADD14RoundRect,0.140000X0.170000X-0.140000X0.170000X0.140000X-0.170000X0.140000X-0.170000X-0.140000X0*%
%ADD15RoundRect,0.218750X-0.256250X0.218750X-0.256250X-0.218750X0.256250X-0.218750X0.256250X0.218750X0*%
%ADD16RoundRect,0.135000X0.135000X0.185000X-0.135000X0.185000X-0.135000X-0.185000X0.135000X-0.185000X0*%
%ADD17RoundRect,0.135000X0.185000X-0.135000X0.185000X0.135000X-0.185000X0.135000X-0.185000X-0.135000X0*%
%ADD18RoundRect,0.250000X-0.250000X-0.475000X0.250000X-0.475000X0.250000X0.475000X-0.250000X0.475000X0*%
%ADD19RoundRect,0.140000X-0.170000X0.140000X-0.170000X-0.140000X0.170000X-0.140000X0.170000X0.140000X0*%
%ADD20RoundRect,0.135000X-0.135000X-0.185000X0.135000X-0.185000X0.135000X0.185000X-0.135000X0.185000X0*%
%ADD21RoundRect,0.250000X0.475000X-0.250000X0.475000X0.250000X-0.475000X0.250000X-0.475000X-0.250000X0*%
%ADD22RoundRect,0.225000X-0.225000X-0.250000X0.225000X-0.250000X0.225000X0.250000X-0.225000X0.250000X0*%
%ADD23R,1.200000X1.400000*%
%ADD24RoundRect,0.140000X-0.140000X-0.170000X0.140000X-0.170000X0.140000X0.170000X-0.140000X0.170000X0*%
%ADD25RoundRect,0.075000X-0.662500X-0.075000X0.662500X-0.075000X0.662500X0.075000X-0.662500X0.075000X0*%
%ADD26RoundRect,0.075000X-0.075000X-0.662500X0.075000X-0.662500X0.075000X0.662500X-0.075000X0.662500X0*%
%ADD27RoundRect,0.135000X-0.185000X0.135000X-0.185000X-0.135000X0.185000X-0.135000X0.185000X0.135000X0*%
%ADD28R,1.500000X2.000000*%
%ADD29R,3.800000X2.000000*%
G04 APERTURE END LIST*
D10*
%TO.C,J1*%
X210825000Y-99150000D03*
X210825000Y-98500000D03*
X210825000Y-97850000D03*
X210825000Y-97200000D03*
X210825000Y-96550000D03*
%TD*%
D11*
%TO.C,C10*%
X187205000Y-105800000D03*
X186245000Y-105800000D03*
%TD*%
D12*
%TO.C,SW1*%
X177360000Y-91850000D03*
X175150000Y-91850000D03*
X177360000Y-99150000D03*
X175150000Y-99150000D03*
D13*
X178010000Y-93250000D03*
X178010000Y-96250000D03*
X178010000Y-97750000D03*
%TD*%
D14*
%TO.C,C4*%
X188250000Y-96430000D03*
X188250000Y-95470000D03*
%TD*%
D15*
%TO.C,FB1*%
X188725000Y-104225000D03*
X188725000Y-105800000D03*
%TD*%
D16*
%TO.C,R4*%
X193085000Y-108600000D03*
X192065000Y-108600000D03*
%TD*%
D15*
%TO.C,D1*%
X211400000Y-105900000D03*
X211400000Y-107475000D03*
%TD*%
D14*
%TO.C,C13*%
X186500000Y-99480000D03*
X186500000Y-98520000D03*
%TD*%
%TO.C,C12*%
X186500000Y-97330000D03*
X186500000Y-96370000D03*
%TD*%
D17*
%TO.C,R2*%
X179800000Y-93910000D03*
X179800000Y-92890000D03*
%TD*%
D11*
%TO.C,C5*%
X197605000Y-105250000D03*
X196645000Y-105250000D03*
%TD*%
D18*
%TO.C,C1*%
X202900000Y-101300000D03*
X204800000Y-101300000D03*
%TD*%
D19*
%TO.C,C6*%
X200250000Y-96113430D03*
X200250000Y-97073430D03*
%TD*%
D20*
%TO.C,R5*%
X194315000Y-108600000D03*
X195335000Y-108600000D03*
%TD*%
D21*
%TO.C,C2*%
X208350000Y-107500000D03*
X208350000Y-105600000D03*
%TD*%
D14*
%TO.C,C8*%
X188300000Y-100580000D03*
X188300000Y-99620000D03*
%TD*%
D22*
%TO.C,C3*%
X190975000Y-91500000D03*
X192525000Y-91500000D03*
%TD*%
D11*
%TO.C,C9*%
X187205000Y-104300000D03*
X186245000Y-104300000D03*
%TD*%
D23*
%TO.C,Y1*%
X183000000Y-96750000D03*
X183000000Y-98950000D03*
X184700000Y-98950000D03*
X184700000Y-96750000D03*
%TD*%
D24*
%TO.C,C11*%
X190920000Y-105250000D03*
X191880000Y-105250000D03*
%TD*%
%TO.C,C7*%
X191270000Y-93000000D03*
X192230000Y-93000000D03*
%TD*%
D25*
%TO.C,U2*%
X190087500Y-96412500D03*
X190087500Y-96912500D03*
X190087500Y-97412500D03*
X190087500Y-97912500D03*
X190087500Y-98412500D03*
X190087500Y-98912500D03*
X190087500Y-99412500D03*
X190087500Y-99912500D03*
X190087500Y-100412500D03*
X190087500Y-100912500D03*
X190087500Y-101412500D03*
X190087500Y-101912500D03*
D26*
X191500000Y-103325000D03*
X192000000Y-103325000D03*
X192500000Y-103325000D03*
X193000000Y-103325000D03*
X193500000Y-103325000D03*
X194000000Y-103325000D03*
X194500000Y-103325000D03*
X195000000Y-103325000D03*
X195500000Y-103325000D03*
X196000000Y-103325000D03*
X196500000Y-103325000D03*
X197000000Y-103325000D03*
D25*
X198412500Y-101912500D03*
X198412500Y-101412500D03*
X198412500Y-100912500D03*
X198412500Y-100412500D03*
X198412500Y-99912500D03*
X198412500Y-99412500D03*
X198412500Y-98912500D03*
X198412500Y-98412500D03*
X198412500Y-97912500D03*
X198412500Y-97412500D03*
X198412500Y-96912500D03*
X198412500Y-96412500D03*
D26*
X197000000Y-95000000D03*
X196500000Y-95000000D03*
X196000000Y-95000000D03*
X195500000Y-95000000D03*
X195000000Y-95000000D03*
X194500000Y-95000000D03*
X194000000Y-95000000D03*
X193500000Y-95000000D03*
X193000000Y-95000000D03*
X192500000Y-95000000D03*
X192000000Y-95000000D03*
X191500000Y-95000000D03*
%TD*%
D27*
%TO.C,R1*%
X213450000Y-105877500D03*
X213450000Y-106897500D03*
%TD*%
D28*
%TO.C,U1*%
X205950000Y-103650000D03*
X203650000Y-103650000D03*
D29*
X203650000Y-109950000D03*
D28*
X201350000Y-103650000D03*
%TD*%
D27*
%TO.C,R3*%
X203800000Y-96780000D03*
X203800000Y-97800000D03*
%TD*%
M02*
